<?xml version="1.0" encoding="UTF-8"?>
<!DOCTYPE svg PUBLIC '-//W3C//DTD SVG 1.0//EN'
          'http://www.w3.org/TR/2001/REC-SVG-20010904/DTD/svg10.dtd'>
<svg fill-opacity="0" xmlns:xlink="http://www.w3.org/1999/xlink" color-rendering="auto" color-interpolation="auto" text-rendering="auto" stroke="rgb(0,0,0)" stroke-linecap="square" width="1787" stroke-miterlimit="10" shape-rendering="auto" stroke-opacity="0" fill="rgb(0,0,0)" stroke-dasharray="none" font-weight="normal" stroke-width="1" height="941" xmlns="http://www.w3.org/2000/svg" font-family="'Dialog'" font-style="normal" stroke-linejoin="miter" font-size="12px" stroke-dashoffset="0" image-rendering="auto"
><!--Generated by the Batik Graphics2D SVG Generator--><defs id="genericDefs"
  /><g
  ><defs id="defs1"
    ><clipPath clipPathUnits="userSpaceOnUse" id="clipPath1"
      ><path d="M-7 -7 L1792 -7 L1792 946 L-7 946 L-7 -7 Z"
      /></clipPath
      ><clipPath clipPathUnits="userSpaceOnUse" id="clipPath2"
      ><path d="M0 0 L0 915 L1781 915 L1781 0 Z"
      /></clipPath
      ><clipPath clipPathUnits="userSpaceOnUse" id="clipPath3"
      ><path d="M-7 -7 L269 -7 L269 194 L-7 194 L-7 -7 Z"
      /></clipPath
      ><clipPath clipPathUnits="userSpaceOnUse" id="clipPath4"
      ><path d="M0 0 L0 163 L258 163 L258 0 Z"
      /></clipPath
      ><clipPath clipPathUnits="userSpaceOnUse" id="clipPath5"
      ><path d="M-7 -7 L1152 -7 L1152 801 L-7 801 L-7 -7 Z"
      /></clipPath
      ><clipPath clipPathUnits="userSpaceOnUse" id="clipPath6"
      ><path d="M0 0 L0 770 L1141 770 L1141 0 Z"
      /></clipPath
      ><clipPath clipPathUnits="userSpaceOnUse" id="clipPath7"
      ><path d="M-7 -7 L154 -7 L154 51 L-7 51 L-7 -7 Z"
      /></clipPath
      ><clipPath clipPathUnits="userSpaceOnUse" id="clipPath8"
      ><path d="M0 0 L0 26 L143 26 L143 0 Z"
      /></clipPath
      ><clipPath clipPathUnits="userSpaceOnUse" id="clipPath9"
      ><path d="M0 0 L0 14 L143 14 L143 0 Z"
      /></clipPath
      ><clipPath clipPathUnits="userSpaceOnUse" id="clipPath10"
      ><path d="M-7 -7 L377 -7 L377 211 L-7 211 L-7 -7 Z"
      /></clipPath
      ><clipPath clipPathUnits="userSpaceOnUse" id="clipPath11"
      ><path d="M0 0 L0 180 L366 180 L366 0 Z"
      /></clipPath
      ><clipPath clipPathUnits="userSpaceOnUse" id="clipPath12"
      ><path d="M-7 -7 L271 -7 L271 75 L-7 75 L-7 -7 Z"
      /></clipPath
      ><clipPath clipPathUnits="userSpaceOnUse" id="clipPath13"
      ><path d="M0 0 L0 50 L260 50 L260 0 Z"
      /></clipPath
      ><clipPath clipPathUnits="userSpaceOnUse" id="clipPath14"
      ><path d="M0 0 L0 14 L260 14 L260 0 Z"
      /></clipPath
      ><clipPath clipPathUnits="userSpaceOnUse" id="clipPath15"
      ><path d="M-7 -7 L421 -7 L421 372 L-7 372 L-7 -7 Z"
      /></clipPath
      ><clipPath clipPathUnits="userSpaceOnUse" id="clipPath16"
      ><path d="M0 0 L0 341 L410 341 L410 0 Z"
      /></clipPath
      ><clipPath clipPathUnits="userSpaceOnUse" id="clipPath17"
      ><path d="M-7 -7 L323 -7 L323 56 L-7 56 L-7 -7 Z"
      /></clipPath
      ><clipPath clipPathUnits="userSpaceOnUse" id="clipPath18"
      ><path d="M0 0 L0 17 L312 17 L312 0 Z"
      /></clipPath
      ><clipPath clipPathUnits="userSpaceOnUse" id="clipPath19"
      ><path d="M0 0 L0 28 L312 28 L312 0 Z"
      /></clipPath
      ><clipPath clipPathUnits="userSpaceOnUse" id="clipPath20"
      ><path d="M-7 -7 L290 -7 L290 69 L-7 69 L-7 -7 Z"
      /></clipPath
      ><clipPath clipPathUnits="userSpaceOnUse" id="clipPath21"
      ><path d="M0 0 L0 30 L279 30 L279 0 Z"
      /></clipPath
      ><clipPath clipPathUnits="userSpaceOnUse" id="clipPath22"
      ><path d="M0 0 L0 28 L279 28 L279 0 Z"
      /></clipPath
      ><clipPath clipPathUnits="userSpaceOnUse" id="clipPath23"
      ><path d="M-7 -7 L191 -7 L191 67 L-7 67 L-7 -7 Z"
      /></clipPath
      ><clipPath clipPathUnits="userSpaceOnUse" id="clipPath24"
      ><path d="M0 0 L0 28 L180 28 L180 0 Z"
      /></clipPath
      ><clipPath clipPathUnits="userSpaceOnUse" id="clipPath25"
      ><path d="M-7 -7 L325 -7 L325 168 L-7 168 L-7 -7 Z"
      /></clipPath
      ><clipPath clipPathUnits="userSpaceOnUse" id="clipPath26"
      ><path d="M0 0 L0 137 L314 137 L314 0 Z"
      /></clipPath
      ><clipPath clipPathUnits="userSpaceOnUse" id="clipPath27"
      ><path d="M-7 -7 L334 -7 L334 139 L-7 139 L-7 -7 Z"
      /></clipPath
      ><clipPath clipPathUnits="userSpaceOnUse" id="clipPath28"
      ><path d="M0 0 L0 108 L323 108 L323 0 Z"
      /></clipPath
      ><clipPath clipPathUnits="userSpaceOnUse" id="clipPath29"
      ><path d="M-7 -7 L195 -7 L195 51 L-7 51 L-7 -7 Z"
      /></clipPath
      ><clipPath clipPathUnits="userSpaceOnUse" id="clipPath30"
      ><path d="M0 0 L0 26 L184 26 L184 0 Z"
      /></clipPath
      ><clipPath clipPathUnits="userSpaceOnUse" id="clipPath31"
      ><path d="M0 0 L0 14 L184 14 L184 0 Z"
      /></clipPath
      ><clipPath clipPathUnits="userSpaceOnUse" id="clipPath32"
      ><path d="M-7 -7 L317 -7 L317 147 L-7 147 L-7 -7 Z"
      /></clipPath
      ><clipPath clipPathUnits="userSpaceOnUse" id="clipPath33"
      ><path d="M0 0 L0 116 L306 116 L306 0 Z"
      /></clipPath
      ><clipPath clipPathUnits="userSpaceOnUse" id="clipPath34"
      ><path d="M-7 -7 L189 -7 L189 71 L-7 71 L-7 -7 Z"
      /></clipPath
      ><clipPath clipPathUnits="userSpaceOnUse" id="clipPath35"
      ><path d="M0 0 L0 46 L178 46 L178 0 Z"
      /></clipPath
      ><clipPath clipPathUnits="userSpaceOnUse" id="clipPath36"
      ><path d="M0 0 L0 14 L178 14 L178 0 Z"
      /></clipPath
      ><clipPath clipPathUnits="userSpaceOnUse" id="clipPath37"
      ><path d="M-7 -7 L148 -7 L148 95 L-7 95 L-7 -7 Z"
      /></clipPath
      ><clipPath clipPathUnits="userSpaceOnUse" id="clipPath38"
      ><path d="M0 0 L0 56 L137 56 L137 0 Z"
      /></clipPath
      ><clipPath clipPathUnits="userSpaceOnUse" id="clipPath39"
      ><path d="M0 0 L0 28 L137 28 L137 0 Z"
      /></clipPath
      ><clipPath clipPathUnits="userSpaceOnUse" id="clipPath40"
      ><path d="M-7 -7 L214 -7 L214 141 L-7 141 L-7 -7 Z"
      /></clipPath
      ><clipPath clipPathUnits="userSpaceOnUse" id="clipPath41"
      ><path d="M0 0 L0 110 L203 110 L203 0 Z"
      /></clipPath
      ><clipPath clipPathUnits="userSpaceOnUse" id="clipPath42"
      ><path d="M-7 -7 L114 -7 L114 71 L-7 71 L-7 -7 Z"
      /></clipPath
      ><clipPath clipPathUnits="userSpaceOnUse" id="clipPath43"
      ><path d="M0 0 L0 32 L103 32 L103 0 Z"
      /></clipPath
      ><clipPath clipPathUnits="userSpaceOnUse" id="clipPath44"
      ><path d="M0 0 L0 28 L103 28 L103 0 Z"
      /></clipPath
      ><clipPath clipPathUnits="userSpaceOnUse" id="clipPath45"
      ><path d="M-7 -7 L268 -7 L268 197 L-7 197 L-7 -7 Z"
      /></clipPath
      ><clipPath clipPathUnits="userSpaceOnUse" id="clipPath46"
      ><path d="M0 0 L0 166 L257 166 L257 0 Z"
      /></clipPath
      ><clipPath clipPathUnits="userSpaceOnUse" id="clipPath47"
      ><path d="M-7 -7 L177 -7 L177 51 L-7 51 L-7 -7 Z"
      /></clipPath
      ><clipPath clipPathUnits="userSpaceOnUse" id="clipPath48"
      ><path d="M0 0 L0 26 L166 26 L166 0 Z"
      /></clipPath
      ><clipPath clipPathUnits="userSpaceOnUse" id="clipPath49"
      ><path d="M0 0 L0 14 L166 14 L166 0 Z"
      /></clipPath
      ><clipPath clipPathUnits="userSpaceOnUse" id="clipPath50"
      ><path d="M-7 -7 L175 -7 L175 75 L-7 75 L-7 -7 Z"
      /></clipPath
      ><clipPath clipPathUnits="userSpaceOnUse" id="clipPath51"
      ><path d="M0 0 L0 36 L164 36 L164 0 Z"
      /></clipPath
      ><clipPath clipPathUnits="userSpaceOnUse" id="clipPath52"
      ><path d="M0 0 L0 28 L164 28 L164 0 Z"
      /></clipPath
      ><clipPath clipPathUnits="userSpaceOnUse" id="clipPath53"
      ><path d="M-7 -7 L133 -7 L133 75 L-7 75 L-7 -7 Z"
      /></clipPath
      ><clipPath clipPathUnits="userSpaceOnUse" id="clipPath54"
      ><path d="M0 0 L0 36 L122 36 L122 0 Z"
      /></clipPath
      ><clipPath clipPathUnits="userSpaceOnUse" id="clipPath55"
      ><path d="M0 0 L0 28 L122 28 L122 0 Z"
      /></clipPath
      ><clipPath clipPathUnits="userSpaceOnUse" id="clipPath56"
      ><path d="M0 0 L461 0 L461 104 L0 104 L0 0 Z"
      /></clipPath
      ><clipPath clipPathUnits="userSpaceOnUse" id="clipPath57"
      ><path d="M0 0 L0 104 L461 104 L461 0 Z"
      /></clipPath
      ><clipPath clipPathUnits="userSpaceOnUse" id="clipPath58"
      ><path d="M0 0 L104 0 L104 327 L0 327 L0 0 Z"
      /></clipPath
      ><clipPath clipPathUnits="userSpaceOnUse" id="clipPath59"
      ><path d="M0 0 L0 327 L104 327 L104 0 Z"
      /></clipPath
      ><clipPath clipPathUnits="userSpaceOnUse" id="clipPath60"
      ><path d="M0 0 L104 0 L104 287 L0 287 L0 0 Z"
      /></clipPath
      ><clipPath clipPathUnits="userSpaceOnUse" id="clipPath61"
      ><path d="M0 0 L0 287 L104 287 L104 0 Z"
      /></clipPath
      ><clipPath clipPathUnits="userSpaceOnUse" id="clipPath62"
      ><path d="M0 0 L639 0 L639 169 L0 169 L0 0 Z"
      /></clipPath
      ><clipPath clipPathUnits="userSpaceOnUse" id="clipPath63"
      ><path d="M0 0 L0 169 L639 169 L639 0 Z"
      /></clipPath
      ><clipPath clipPathUnits="userSpaceOnUse" id="clipPath64"
      ><path d="M0 0 L453 0 L453 104 L0 104 L0 0 Z"
      /></clipPath
      ><clipPath clipPathUnits="userSpaceOnUse" id="clipPath65"
      ><path d="M0 0 L0 104 L453 104 L453 0 Z"
      /></clipPath
      ><clipPath clipPathUnits="userSpaceOnUse" id="clipPath66"
      ><path d="M0 0 L471 0 L471 104 L0 104 L0 0 Z"
      /></clipPath
      ><clipPath clipPathUnits="userSpaceOnUse" id="clipPath67"
      ><path d="M0 0 L0 104 L471 104 L471 0 Z"
      /></clipPath
      ><clipPath clipPathUnits="userSpaceOnUse" id="clipPath68"
      ><path d="M0 0 L493 0 L493 218 L0 218 L0 0 Z"
      /></clipPath
      ><clipPath clipPathUnits="userSpaceOnUse" id="clipPath69"
      ><path d="M0 0 L0 218 L493 218 L493 0 Z"
      /></clipPath
      ><clipPath clipPathUnits="userSpaceOnUse" id="clipPath70"
      ><path d="M0 0 L872 0 L872 802 L0 802 L0 0 Z"
      /></clipPath
      ><clipPath clipPathUnits="userSpaceOnUse" id="clipPath71"
      ><path d="M0 0 L0 802 L872 802 L872 0 Z"
      /></clipPath
      ><clipPath clipPathUnits="userSpaceOnUse" id="clipPath72"
      ><path d="M0 0 L373 0 L373 532 L0 532 L0 0 Z"
      /></clipPath
      ><clipPath clipPathUnits="userSpaceOnUse" id="clipPath73"
      ><path d="M0 0 L0 532 L373 532 L373 0 Z"
      /></clipPath
      ><clipPath clipPathUnits="userSpaceOnUse" id="clipPath74"
      ><path d="M0 0 L547 0 L547 264 L0 264 L0 0 Z"
      /></clipPath
      ><clipPath clipPathUnits="userSpaceOnUse" id="clipPath75"
      ><path d="M0 0 L0 264 L547 264 L547 0 Z"
      /></clipPath
      ><clipPath clipPathUnits="userSpaceOnUse" id="clipPath76"
      ><path d="M0 0 L104 0 L104 134 L0 134 L0 0 Z"
      /></clipPath
      ><clipPath clipPathUnits="userSpaceOnUse" id="clipPath77"
      ><path d="M0 0 L0 134 L104 134 L104 0 Z"
      /></clipPath
      ><clipPath clipPathUnits="userSpaceOnUse" id="clipPath78"
      ><path d="M0 0 L217 0 L217 250 L0 250 L0 0 Z"
      /></clipPath
      ><clipPath clipPathUnits="userSpaceOnUse" id="clipPath79"
      ><path d="M0 0 L0 250 L217 250 L217 0 Z"
      /></clipPath
      ><clipPath clipPathUnits="userSpaceOnUse" id="clipPath80"
      ><path d="M0 0 L209 0 L209 333 L0 333 L0 0 Z"
      /></clipPath
      ><clipPath clipPathUnits="userSpaceOnUse" id="clipPath81"
      ><path d="M0 0 L0 333 L209 333 L209 0 Z"
      /></clipPath
      ><clipPath clipPathUnits="userSpaceOnUse" id="clipPath82"
      ><path d="M0 0 L841 0 L841 160 L0 160 L0 0 Z"
      /></clipPath
      ><clipPath clipPathUnits="userSpaceOnUse" id="clipPath83"
      ><path d="M0 0 L0 160 L841 160 L841 0 Z"
      /></clipPath
      ><clipPath clipPathUnits="userSpaceOnUse" id="clipPath84"
      ><path d="M0 0 L662 0 L662 327 L0 327 L0 0 Z"
      /></clipPath
      ><clipPath clipPathUnits="userSpaceOnUse" id="clipPath85"
      ><path d="M0 0 L0 327 L662 327 L662 0 Z"
      /></clipPath
      ><clipPath clipPathUnits="userSpaceOnUse" id="clipPath86"
      ><path d="M0 0 L269 0 L269 505 L0 505 L0 0 Z"
      /></clipPath
      ><clipPath clipPathUnits="userSpaceOnUse" id="clipPath87"
      ><path d="M0 0 L0 505 L269 505 L269 0 Z"
      /></clipPath
    ></defs
    ><g fill="white" text-rendering="geometricPrecision" fill-opacity="1" stroke-opacity="1" stroke="white"
    ><rect x="0" width="1787" height="941" y="0" stroke="none"
    /></g
    ><g font-size="11px" transform="translate(2,2)" fill-opacity="0.1098" fill="rgb(122,207,245)" text-rendering="geometricPrecision" image-rendering="optimizeQuality" font-family="sans-serif" stroke="rgb(122,207,245)" stroke-opacity="0.1098"
    ><rect x="0" width="356" height="20" y="0" clip-path="url(#clipPath1)" stroke="none"
      /><rect x="0" width="1780" height="914" y="20" clip-path="url(#clipPath1)" stroke="none"
    /></g
    ><g stroke-linecap="butt" font-size="11px" transform="translate(2,2)" fill-opacity="1" fill="black" text-rendering="geometricPrecision" image-rendering="optimizeQuality" font-family="sans-serif" stroke-linejoin="round" stroke="black" stroke-opacity="1" stroke-miterlimit="0"
    ><path fill="none" d="M0 20 L1780 20 L1780 934 L0 934 L0 0 L356 0 L356 20" clip-path="url(#clipPath1)"
    /></g
    ><g font-size="11px" transform="translate(2,22)" fill-opacity="1" fill="black" text-rendering="geometricPrecision" image-rendering="optimizeQuality" font-family="sans-serif" stroke="black" stroke-opacity="1"
    ><text x="863" xml:space="preserve" y="11" clip-path="url(#clipPath2)" stroke="none"
      >eapli.base</text
    ></g
    ><g font-size="11px" transform="translate(33,57)" fill-opacity="0.1098" fill="rgb(122,207,245)" text-rendering="geometricPrecision" image-rendering="optimizeQuality" font-family="sans-serif" stroke="rgb(122,207,245)" stroke-opacity="0.1098"
    ><rect x="0" width="51" height="20" y="0" clip-path="url(#clipPath3)" stroke="none"
      /><rect x="0" width="257" height="162" y="20" clip-path="url(#clipPath3)" stroke="none"
    /></g
    ><g stroke-linecap="butt" font-size="11px" transform="translate(33,57)" fill-opacity="1" fill="black" text-rendering="geometricPrecision" image-rendering="optimizeQuality" font-family="sans-serif" stroke-linejoin="round" stroke="black" stroke-opacity="1" stroke-miterlimit="0"
    ><path fill="none" d="M0 20 L257 20 L257 182 L0 182 L0 0 L51 0 L51 20" clip-path="url(#clipPath3)"
    /></g
    ><g font-size="11px" transform="translate(33,77)" fill-opacity="1" fill="black" text-rendering="geometricPrecision" image-rendering="optimizeQuality" font-family="sans-serif" stroke="black" stroke-opacity="1"
    ><text x="67" xml:space="preserve" y="11" clip-path="url(#clipPath4)" stroke="none"
      >app.backoffice.console</text
    ></g
    ><g font-size="11px" transform="translate(482,41)" fill-opacity="0.1098" fill="rgb(122,207,245)" text-rendering="geometricPrecision" image-rendering="optimizeQuality" font-family="sans-serif" stroke="rgb(122,207,245)" stroke-opacity="0.1098"
    ><rect x="0" width="228" height="20" y="0" clip-path="url(#clipPath5)" stroke="none"
      /><rect x="0" width="1140" height="769" y="20" clip-path="url(#clipPath5)" stroke="none"
    /></g
    ><g stroke-linecap="butt" font-size="11px" transform="translate(482,41)" fill-opacity="1" fill="black" text-rendering="geometricPrecision" image-rendering="optimizeQuality" font-family="sans-serif" stroke-linejoin="round" stroke="black" stroke-opacity="1" stroke-miterlimit="0"
    ><path fill="none" d="M0 20 L1140 20 L1140 789 L0 789 L0 0 L228 0 L228 20" clip-path="url(#clipPath5)"
    /></g
    ><g font-size="11px" transform="translate(482,61)" fill-opacity="1" fill="black" text-rendering="geometricPrecision" image-rendering="optimizeQuality" font-family="sans-serif" stroke="black" stroke-opacity="1"
    ><text x="558" xml:space="preserve" y="11" clip-path="url(#clipPath6)" stroke="none"
      >core</text
    ></g
    ><g font-size="11px" transform="translate(88,147)" fill-opacity="1" fill="rgb(122,207,245)" text-rendering="geometricPrecision" image-rendering="optimizeQuality" font-family="sans-serif" stroke="rgb(122,207,245)" font-weight="bold" stroke-opacity="1"
    ><rect x="0" width="143" height="40" y="0" clip-path="url(#clipPath7)" stroke="none"
    /></g
    ><g fill-opacity="1" text-rendering="geometricPrecision" stroke="black" stroke-linecap="butt" transform="translate(88,147)" stroke-miterlimit="0" stroke-opacity="1" fill="black" font-weight="bold" font-family="sans-serif" stroke-linejoin="round" font-size="11px" image-rendering="optimizeQuality"
    ><rect fill="none" x="0" width="143" height="40" y="0" clip-path="url(#clipPath7)"
      /><line y2="14" fill="none" x1="0" clip-path="url(#clipPath7)" x2="143" y1="14"
    /></g
    ><g font-size="11px" transform="matrix(1,0,0,1,88,161)" fill-opacity="1" fill="black" text-rendering="geometricPrecision" image-rendering="optimizeQuality" font-family="sans-serif" stroke="black" stroke-opacity="1"
    ><text x="2" xml:space="preserve" y="13" clip-path="url(#clipPath8)" stroke="none"
      >+doShow()</text
    ></g
    ><g font-size="11px" transform="translate(88,147)" fill-opacity="1" fill="black" text-rendering="geometricPrecision" image-rendering="optimizeQuality" font-family="sans-serif" stroke="black" font-weight="bold" stroke-opacity="1"
    ><text x="4" xml:space="preserve" y="11" clip-path="url(#clipPath9)" stroke="none"
      >AddProductionOrderIUI</text
    ></g
    ><g font-size="11px" transform="translate(556,93)" fill-opacity="0.1098" fill="rgb(122,207,245)" text-rendering="geometricPrecision" image-rendering="optimizeQuality" font-family="sans-serif" stroke="rgb(122,207,245)" stroke-opacity="0.1098"
    ><rect x="0" width="73" height="20" y="0" clip-path="url(#clipPath10)" stroke="none"
      /><rect x="0" width="365" height="179" y="20" clip-path="url(#clipPath10)" stroke="none"
    /></g
    ><g stroke-linecap="butt" font-size="11px" transform="translate(556,93)" fill-opacity="1" fill="black" text-rendering="geometricPrecision" image-rendering="optimizeQuality" font-family="sans-serif" stroke-linejoin="round" stroke="black" stroke-opacity="1" stroke-miterlimit="0"
    ><path fill="none" d="M0 20 L365 20 L365 199 L0 199 L0 0 L73 0 L73 20" clip-path="url(#clipPath10)"
    /></g
    ><g font-size="11px" transform="translate(556,113)" fill-opacity="1" fill="black" text-rendering="geometricPrecision" image-rendering="optimizeQuality" font-family="sans-serif" stroke="black" stroke-opacity="1"
    ><text x="108" xml:space="preserve" y="11" clip-path="url(#clipPath11)" stroke="none"
      >productionorder.application</text
    ></g
    ><g font-size="11px" transform="translate(590,142)" fill-opacity="1" fill="rgb(122,207,245)" text-rendering="geometricPrecision" image-rendering="optimizeQuality" font-family="sans-serif" stroke="rgb(122,207,245)" font-weight="bold" stroke-opacity="1"
    ><rect x="0" width="260" height="64" y="0" clip-path="url(#clipPath12)" stroke="none"
    /></g
    ><g fill-opacity="1" text-rendering="geometricPrecision" stroke="black" stroke-linecap="butt" transform="translate(590,142)" stroke-miterlimit="0" stroke-opacity="1" fill="black" font-weight="bold" font-family="sans-serif" stroke-linejoin="round" font-size="11px" image-rendering="optimizeQuality"
    ><rect fill="none" x="0" width="260" height="64" y="0" clip-path="url(#clipPath12)"
      /><line y2="14" fill="none" x1="0" clip-path="url(#clipPath12)" x2="260" y1="14"
    /></g
    ><g font-size="11px" transform="matrix(1,0,0,1,590,156)" fill-opacity="1" fill="black" text-rendering="geometricPrecision" image-rendering="optimizeQuality" font-family="sans-serif" stroke="black" stroke-opacity="1"
    ><text x="2" xml:space="preserve" y="13" clip-path="url(#clipPath13)" stroke="none"
      >+addExecutionOrder(final String executionOr...</text
    ></g
    ><g font-size="11px" transform="matrix(1,0,0,1,590,156)" fill-opacity="1" fill="black" text-rendering="geometricPrecision" image-rendering="optimizeQuality" font-family="sans-serif" stroke="black" stroke-opacity="1"
    ><text x="2" xml:space="preserve" y="27" clip-path="url(#clipPath13)" stroke="none"
      >+findProductByID(String factory_ID)</text
    ></g
    ><g font-size="11px" transform="translate(590,142)" fill-opacity="1" fill="black" text-rendering="geometricPrecision" image-rendering="optimizeQuality" font-family="sans-serif" stroke="black" font-weight="bold" stroke-opacity="1"
    ><text x="42" xml:space="preserve" y="11" clip-path="url(#clipPath14)" stroke="none"
      >AddProductionOrderController</text
    ></g
    ><g font-size="11px" transform="translate(1151,82)" fill-opacity="0.1098" fill="rgb(122,207,245)" text-rendering="geometricPrecision" image-rendering="optimizeQuality" font-family="sans-serif" stroke="rgb(122,207,245)" stroke-opacity="0.1098"
    ><rect x="0" width="81" height="20" y="0" clip-path="url(#clipPath15)" stroke="none"
      /><rect x="0" width="409" height="340" y="20" clip-path="url(#clipPath15)" stroke="none"
    /></g
    ><g stroke-linecap="butt" font-size="11px" transform="translate(1151,82)" fill-opacity="1" fill="black" text-rendering="geometricPrecision" image-rendering="optimizeQuality" font-family="sans-serif" stroke-linejoin="round" stroke="black" stroke-opacity="1" stroke-miterlimit="0"
    ><path fill="none" d="M0 20 L409 20 L409 360 L0 360 L0 0 L81 0 L81 20" clip-path="url(#clipPath15)"
    /></g
    ><g font-size="11px" transform="translate(1151,102)" fill-opacity="1" fill="black" text-rendering="geometricPrecision" image-rendering="optimizeQuality" font-family="sans-serif" stroke="black" stroke-opacity="1"
    ><text x="139" xml:space="preserve" y="11" clip-path="url(#clipPath16)" stroke="none"
      >productionorder.domain</text
    ></g
    ><g font-size="11px" transform="translate(1201,129)" fill-opacity="1" fill="rgb(122,207,245)" text-rendering="geometricPrecision" image-rendering="optimizeQuality" font-family="sans-serif" stroke="rgb(122,207,245)" font-weight="bold" stroke-opacity="1"
    ><rect x="0" width="312" height="45" y="0" clip-path="url(#clipPath17)" stroke="none"
    /></g
    ><g fill-opacity="1" text-rendering="geometricPrecision" stroke="black" stroke-linecap="butt" transform="translate(1201,129)" stroke-miterlimit="0" stroke-opacity="1" fill="black" font-weight="bold" font-family="sans-serif" stroke-linejoin="round" font-size="11px" image-rendering="optimizeQuality"
    ><rect fill="none" x="0" width="312" height="45" y="0" clip-path="url(#clipPath17)"
      /><line y2="28" fill="none" x1="0" clip-path="url(#clipPath17)" x2="312" y1="28"
    /></g
    ><g font-size="11px" transform="matrix(1,0,0,1,1201,157)" fill-opacity="1" fill="black" text-rendering="geometricPrecision" image-rendering="optimizeQuality" font-family="sans-serif" stroke="black" stroke-opacity="1"
    ><text x="2" xml:space="preserve" y="13" clip-path="url(#clipPath18)" stroke="none"
      >+ExecutionOrder(final ExecutionOrderID executionOrde...</text
    ></g
    ><g font-size="11px" transform="matrix(1,0,0,1,1201,157)" fill-opacity="1" fill="black" text-rendering="geometricPrecision" image-rendering="optimizeQuality" font-family="sans-serif" stroke="black" stroke-opacity="1"
    ><text x="2" xml:space="preserve" y="27" clip-path="url(#clipPath18)" stroke="none"
      >+identity()</text
    ></g
    ><g font-size="11px" transform="translate(1201,129)" fill-opacity="1" fill="black" text-rendering="geometricPrecision" image-rendering="optimizeQuality" font-family="sans-serif" stroke="black" font-weight="bold" stroke-opacity="1"
    ><text x="116" xml:space="preserve" y="11" clip-path="url(#clipPath19)" stroke="none"
      >&lt;Root Entity&gt;</text
      ><text x="108" xml:space="preserve" y="25" clip-path="url(#clipPath19)" stroke="none"
      >ProductionOrder</text
    ></g
    ><g font-size="11px" transform="translate(1219,206)" fill-opacity="1" fill="rgb(255,175,175)" text-rendering="geometricPrecision" image-rendering="optimizeQuality" font-family="sans-serif" stroke="rgb(255,175,175)" font-weight="bold" stroke-opacity="1"
    ><rect x="0" width="279" height="58" y="0" clip-path="url(#clipPath20)" stroke="none"
    /></g
    ><g fill-opacity="1" text-rendering="geometricPrecision" stroke="black" stroke-linecap="butt" transform="translate(1219,206)" stroke-miterlimit="0" stroke-opacity="1" fill="black" font-weight="bold" font-family="sans-serif" stroke-linejoin="round" font-size="11px" image-rendering="optimizeQuality"
    ><rect fill="none" x="0" width="279" height="58" y="0" clip-path="url(#clipPath20)"
      /><line y2="28" fill="none" x1="0" clip-path="url(#clipPath20)" x2="279" y1="28"
    /></g
    ><g font-size="11px" transform="matrix(1,0,0,1,1219,234)" fill-opacity="1" fill="black" text-rendering="geometricPrecision" image-rendering="optimizeQuality" font-family="sans-serif" stroke="black" stroke-opacity="1"
    ><text x="2" xml:space="preserve" y="13" clip-path="url(#clipPath21)" stroke="none"
      >+ExecutionOrderID(final String executionOrderID)</text
    ></g
    ><g font-size="11px" transform="translate(1219,206)" fill-opacity="1" fill="black" text-rendering="geometricPrecision" image-rendering="optimizeQuality" font-family="sans-serif" stroke="black" font-weight="bold" stroke-opacity="1"
    ><text x="93" xml:space="preserve" y="11" clip-path="url(#clipPath22)" stroke="none"
      >&lt;Value-Object&gt;</text
      ><text x="86" xml:space="preserve" y="25" clip-path="url(#clipPath22)" stroke="none"
      >ProductionOrderID</text
    ></g
    ><g font-size="11px" transform="translate(1219,293)" fill-opacity="1" fill="rgb(255,175,175)" text-rendering="geometricPrecision" image-rendering="optimizeQuality" font-family="sans-serif" stroke="rgb(255,175,175)" font-weight="bold" stroke-opacity="1"
    ><rect x="0" width="180" height="56" y="0" clip-path="url(#clipPath23)" stroke="none"
    /></g
    ><g fill-opacity="1" text-rendering="geometricPrecision" stroke="black" stroke-linecap="butt" transform="translate(1219,293)" stroke-miterlimit="0" stroke-opacity="1" fill="black" font-weight="bold" font-family="sans-serif" stroke-linejoin="round" font-size="11px" image-rendering="optimizeQuality"
    ><rect fill="none" x="0" width="180" height="56" y="0" clip-path="url(#clipPath23)"
      /><line y2="28" fill="none" x1="0" clip-path="url(#clipPath23)" x2="180" y1="28"
    /></g
    ><g font-size="11px" transform="matrix(1,0,0,1,1219,321)" fill-opacity="1" fill="black" text-rendering="geometricPrecision" image-rendering="optimizeQuality" font-family="sans-serif" stroke="black" stroke-opacity="1"
    ><text x="2" xml:space="preserve" y="13" clip-path="url(#clipPath24)" stroke="none"
      >+OrderID(final String orderID)</text
    ></g
    ><g font-size="11px" transform="translate(1219,293)" fill-opacity="1" fill="black" text-rendering="geometricPrecision" image-rendering="optimizeQuality" font-family="sans-serif" stroke="black" font-weight="bold" stroke-opacity="1"
    ><text x="43" xml:space="preserve" y="11" clip-path="url(#clipPath24)" stroke="none"
      >&lt;Value-Object&gt;</text
      ><text x="66" xml:space="preserve" y="25" clip-path="url(#clipPath24)" stroke="none"
      >OrderID</text
    ></g
    ><g font-size="11px" transform="translate(1276,456)" fill-opacity="0.1098" fill="rgb(122,207,245)" text-rendering="geometricPrecision" image-rendering="optimizeQuality" font-family="sans-serif" stroke="rgb(122,207,245)" stroke-opacity="0.1098"
    ><rect x="0" width="62" height="20" y="0" clip-path="url(#clipPath25)" stroke="none"
      /><rect x="0" width="313" height="136" y="20" clip-path="url(#clipPath25)" stroke="none"
    /></g
    ><g stroke-linecap="butt" font-size="11px" transform="translate(1276,456)" fill-opacity="1" fill="black" text-rendering="geometricPrecision" image-rendering="optimizeQuality" font-family="sans-serif" stroke-linejoin="round" stroke="black" stroke-opacity="1" stroke-miterlimit="0"
    ><path fill="none" d="M0 20 L313 20 L313 156 L0 156 L0 0 L62 0 L62 20" clip-path="url(#clipPath25)"
    /></g
    ><g font-size="11px" transform="translate(1276,476)" fill-opacity="1" fill="black" text-rendering="geometricPrecision" image-rendering="optimizeQuality" font-family="sans-serif" stroke="black" stroke-opacity="1"
    ><text x="113" xml:space="preserve" y="11" clip-path="url(#clipPath26)" stroke="none"
      >product.domain</text
    ></g
    ><g font-size="11px" transform="translate(524,377)" fill-opacity="0.1098" fill="rgb(122,207,245)" text-rendering="geometricPrecision" image-rendering="optimizeQuality" font-family="sans-serif" stroke="rgb(122,207,245)" stroke-opacity="0.1098"
    ><rect x="0" width="64" height="20" y="0" clip-path="url(#clipPath27)" stroke="none"
      /><rect x="0" width="322" height="107" y="20" clip-path="url(#clipPath27)" stroke="none"
    /></g
    ><g stroke-linecap="butt" font-size="11px" transform="translate(524,377)" fill-opacity="1" fill="black" text-rendering="geometricPrecision" image-rendering="optimizeQuality" font-family="sans-serif" stroke-linejoin="round" stroke="black" stroke-opacity="1" stroke-miterlimit="0"
    ><path fill="none" d="M0 20 L322 20 L322 127 L0 127 L0 0 L64 0 L64 20" clip-path="url(#clipPath27)"
    /></g
    ><g font-size="11px" transform="translate(524,397)" fill-opacity="1" fill="black" text-rendering="geometricPrecision" image-rendering="optimizeQuality" font-family="sans-serif" stroke="black" stroke-opacity="1"
    ><text x="106" xml:space="preserve" y="11" clip-path="url(#clipPath28)" stroke="none"
      >products.application</text
    ></g
    ><g font-size="11px" transform="translate(579,431)" fill-opacity="1" fill="rgb(122,207,245)" text-rendering="geometricPrecision" image-rendering="optimizeQuality" font-family="sans-serif" stroke="rgb(122,207,245)" font-weight="bold" stroke-opacity="1"
    ><rect x="0" width="184" height="40" y="0" clip-path="url(#clipPath29)" stroke="none"
    /></g
    ><g fill-opacity="1" text-rendering="geometricPrecision" stroke="black" stroke-linecap="butt" transform="translate(579,431)" stroke-miterlimit="0" stroke-opacity="1" fill="black" font-weight="bold" font-family="sans-serif" stroke-linejoin="round" font-size="11px" image-rendering="optimizeQuality"
    ><rect fill="none" x="0" width="184" height="40" y="0" clip-path="url(#clipPath29)"
      /><line y2="14" fill="none" x1="0" clip-path="url(#clipPath29)" x2="184" y1="14"
    /></g
    ><g font-size="11px" transform="matrix(1,0,0,1,579,445)" fill-opacity="1" fill="black" text-rendering="geometricPrecision" image-rendering="optimizeQuality" font-family="sans-serif" stroke="black" stroke-opacity="1"
    ><text x="2" xml:space="preserve" y="13" clip-path="url(#clipPath30)" stroke="none"
      >+findByID(final String factory_ID)</text
    ></g
    ><g font-size="11px" transform="translate(579,431)" fill-opacity="1" fill="black" text-rendering="geometricPrecision" image-rendering="optimizeQuality" font-family="sans-serif" stroke="black" font-weight="bold" stroke-opacity="1"
    ><text x="25" xml:space="preserve" y="11" clip-path="url(#clipPath31)" stroke="none"
      >FindProductByIDService</text
    ></g
    ><g font-size="11px" transform="translate(532,603)" fill-opacity="0.1098" fill="rgb(122,207,245)" text-rendering="geometricPrecision" image-rendering="optimizeQuality" font-family="sans-serif" stroke="rgb(122,207,245)" stroke-opacity="0.1098"
    ><rect x="0" width="61" height="20" y="0" clip-path="url(#clipPath32)" stroke="none"
      /><rect x="0" width="305" height="115" y="20" clip-path="url(#clipPath32)" stroke="none"
    /></g
    ><g stroke-linecap="butt" font-size="11px" transform="translate(532,603)" fill-opacity="1" fill="black" text-rendering="geometricPrecision" image-rendering="optimizeQuality" font-family="sans-serif" stroke-linejoin="round" stroke="black" stroke-opacity="1" stroke-miterlimit="0"
    ><path fill="none" d="M0 20 L305 20 L305 135 L0 135 L0 0 L61 0 L61 20" clip-path="url(#clipPath32)"
    /></g
    ><g font-size="11px" transform="translate(532,623)" fill-opacity="1" fill="black" text-rendering="geometricPrecision" image-rendering="optimizeQuality" font-family="sans-serif" stroke="black" stroke-opacity="1"
    ><text x="100" xml:space="preserve" y="11" clip-path="url(#clipPath33)" stroke="none"
      >products.repository</text
    ></g
    ><g font-size="11px" transform="translate(608,656)" fill-opacity="1" fill="rgb(122,207,245)" text-rendering="geometricPrecision" image-rendering="optimizeQuality" font-family="sans-serif" stroke="rgb(122,207,245)" font-weight="bold" stroke-opacity="1"
    ><rect x="0" width="178" height="60" y="0" clip-path="url(#clipPath34)" stroke="none"
    /></g
    ><g fill-opacity="1" text-rendering="geometricPrecision" stroke="black" stroke-linecap="butt" transform="translate(608,656)" stroke-miterlimit="0" stroke-opacity="1" fill="black" font-weight="bold" font-family="sans-serif" stroke-linejoin="round" font-size="11px" image-rendering="optimizeQuality"
    ><rect fill="none" x="0" width="178" height="60" y="0" clip-path="url(#clipPath34)"
      /><line y2="14" fill="none" x1="0" clip-path="url(#clipPath34)" x2="178" y1="14"
    /></g
    ><g font-size="11px" transform="matrix(1,0,0,1,608,670)" fill-opacity="1" fill="black" text-rendering="geometricPrecision" image-rendering="optimizeQuality" font-family="sans-serif" stroke="black" stroke-opacity="1"
    ><text x="2" xml:space="preserve" y="13" clip-path="url(#clipPath35)" stroke="none"
      >+findByID()</text
    ></g
    ><g font-size="11px" transform="translate(608,656)" fill-opacity="1" fill="black" text-rendering="geometricPrecision" image-rendering="optimizeQuality" font-family="sans-serif" stroke="black" font-weight="bold" stroke-opacity="1"
    ><text x="33" xml:space="preserve" y="11" clip-path="url(#clipPath36)" stroke="none"
      >ProductsRepository</text
    ></g
    ><g font-size="11px" transform="translate(1300,509)" fill-opacity="1" fill="rgb(122,207,245)" text-rendering="geometricPrecision" image-rendering="optimizeQuality" font-family="sans-serif" stroke="rgb(122,207,245)" font-weight="bold" stroke-opacity="1"
    ><rect x="0" width="137" height="84" y="0" clip-path="url(#clipPath37)" stroke="none"
    /></g
    ><g fill-opacity="1" text-rendering="geometricPrecision" stroke="black" stroke-linecap="butt" transform="translate(1300,509)" stroke-miterlimit="0" stroke-opacity="1" fill="black" font-weight="bold" font-family="sans-serif" stroke-linejoin="round" font-size="11px" image-rendering="optimizeQuality"
    ><rect fill="none" x="0" width="137" height="84" y="0" clip-path="url(#clipPath37)"
      /><line y2="28" fill="none" x1="0" clip-path="url(#clipPath37)" x2="137" y1="28"
    /></g
    ><g font-size="11px" transform="matrix(1,0,0,1,1300,537)" fill-opacity="1" fill="black" text-rendering="geometricPrecision" image-rendering="optimizeQuality" font-family="sans-serif" stroke="black" stroke-opacity="1"
    ><text x="2" xml:space="preserve" y="13" clip-path="url(#clipPath38)" stroke="none"
      >+hasProductionSheet()</text
    ></g
    ><g font-size="11px" transform="matrix(1,0,0,1,1300,537)" fill-opacity="1" fill="black" text-rendering="geometricPrecision" image-rendering="optimizeQuality" font-family="sans-serif" stroke="black" stroke-opacity="1"
    ><text x="2" xml:space="preserve" y="27" clip-path="url(#clipPath38)" stroke="none"
      >+valueOf()</text
    ></g
    ><g font-size="11px" transform="translate(1300,509)" fill-opacity="1" fill="black" text-rendering="geometricPrecision" image-rendering="optimizeQuality" font-family="sans-serif" stroke="black" font-weight="bold" stroke-opacity="1"
    ><text x="28" xml:space="preserve" y="11" clip-path="url(#clipPath39)" stroke="none"
      >&lt;Root Entity&gt;</text
      ><text x="46" xml:space="preserve" y="25" clip-path="url(#clipPath39)" stroke="none"
      >Product</text
    ></g
    ><g font-size="11px" transform="translate(1368,692)" fill-opacity="0.1098" fill="rgb(122,207,245)" text-rendering="geometricPrecision" image-rendering="optimizeQuality" font-family="sans-serif" stroke="rgb(122,207,245)" stroke-opacity="0.1098"
    ><rect x="0" width="40" height="20" y="0" clip-path="url(#clipPath40)" stroke="none"
      /><rect x="0" width="202" height="109" y="20" clip-path="url(#clipPath40)" stroke="none"
    /></g
    ><g stroke-linecap="butt" font-size="11px" transform="translate(1368,692)" fill-opacity="1" fill="black" text-rendering="geometricPrecision" image-rendering="optimizeQuality" font-family="sans-serif" stroke-linejoin="round" stroke="black" stroke-opacity="1" stroke-miterlimit="0"
    ><path fill="none" d="M0 20 L202 20 L202 129 L0 129 L0 0 L40 0 L40 20" clip-path="url(#clipPath40)"
    /></g
    ><g font-size="11px" transform="translate(1368,712)" fill-opacity="1" fill="black" text-rendering="geometricPrecision" image-rendering="optimizeQuality" font-family="sans-serif" stroke="black" stroke-opacity="1"
    ><text x="43" xml:space="preserve" y="11" clip-path="url(#clipPath41)" stroke="none"
      >domain.mode.general</text
    ></g
    ><g font-size="11px" transform="translate(1418,752)" fill-opacity="1" fill="rgb(255,175,175)" text-rendering="geometricPrecision" image-rendering="optimizeQuality" font-family="sans-serif" stroke="rgb(255,175,175)" font-weight="bold" stroke-opacity="1"
    ><rect x="0" width="103" height="60" y="0" clip-path="url(#clipPath42)" stroke="none"
    /></g
    ><g fill-opacity="1" text-rendering="geometricPrecision" stroke="black" stroke-linecap="butt" transform="translate(1418,752)" stroke-miterlimit="0" stroke-opacity="1" fill="black" font-weight="bold" font-family="sans-serif" stroke-linejoin="round" font-size="11px" image-rendering="optimizeQuality"
    ><rect fill="none" x="0" width="103" height="60" y="0" clip-path="url(#clipPath42)"
      /><line y2="28" fill="none" x1="0" clip-path="url(#clipPath42)" x2="103" y1="28"
    /></g
    ><g font-size="11px" transform="matrix(1,0,0,1,1418,780)" fill-opacity="1" fill="black" text-rendering="geometricPrecision" image-rendering="optimizeQuality" font-family="sans-serif" stroke="black" stroke-opacity="1"
    ><text x="2" xml:space="preserve" y="13" clip-path="url(#clipPath43)" stroke="none"
      >-valueOf</text
    ></g
    ><g font-size="11px" transform="translate(1418,752)" fill-opacity="1" fill="black" text-rendering="geometricPrecision" image-rendering="optimizeQuality" font-family="sans-serif" stroke="black" font-weight="bold" stroke-opacity="1"
    ><text x="5" xml:space="preserve" y="11" clip-path="url(#clipPath44)" stroke="none"
      >&lt;Value-Object&gt;</text
      ><text x="27" xml:space="preserve" y="25" clip-path="url(#clipPath44)" stroke="none"
      >Quantity</text
    ></g
    ><g font-size="11px" transform="translate(944,547)" fill-opacity="0.1098" fill="rgb(122,207,245)" text-rendering="geometricPrecision" image-rendering="optimizeQuality" font-family="sans-serif" stroke="rgb(122,207,245)" stroke-opacity="0.1098"
    ><rect x="0" width="51" height="20" y="0" clip-path="url(#clipPath45)" stroke="none"
      /><rect x="0" width="256" height="165" y="20" clip-path="url(#clipPath45)" stroke="none"
    /></g
    ><g stroke-linecap="butt" font-size="11px" transform="translate(944,547)" fill-opacity="1" fill="black" text-rendering="geometricPrecision" image-rendering="optimizeQuality" font-family="sans-serif" stroke-linejoin="round" stroke="black" stroke-opacity="1" stroke-miterlimit="0"
    ><path fill="none" d="M0 20 L256 20 L256 185 L0 185 L0 0 L51 0 L51 20" clip-path="url(#clipPath45)"
    /></g
    ><g font-size="11px" transform="translate(944,567)" fill-opacity="1" fill="black" text-rendering="geometricPrecision" image-rendering="optimizeQuality" font-family="sans-serif" stroke="black" stroke-opacity="1"
    ><text x="50" xml:space="preserve" y="11" clip-path="url(#clipPath46)" stroke="none"
      >productionorder.repositories</text
    ></g
    ><g font-size="11px" transform="translate(1004,636)" fill-opacity="1" fill="rgb(122,207,245)" text-rendering="geometricPrecision" image-rendering="optimizeQuality" font-family="sans-serif" stroke="rgb(122,207,245)" font-weight="bold" stroke-opacity="1"
    ><rect x="0" width="166" height="40" y="0" clip-path="url(#clipPath47)" stroke="none"
    /></g
    ><g fill-opacity="1" text-rendering="geometricPrecision" stroke="black" stroke-linecap="butt" transform="translate(1004,636)" stroke-miterlimit="0" stroke-opacity="1" fill="black" font-weight="bold" font-family="sans-serif" stroke-linejoin="round" font-size="11px" image-rendering="optimizeQuality"
    ><rect fill="none" x="0" width="166" height="40" y="0" clip-path="url(#clipPath47)"
      /><line y2="14" fill="none" x1="0" clip-path="url(#clipPath47)" x2="166" y1="14"
    /></g
    ><g font-size="11px" transform="matrix(1,0,0,1,1004,650)" fill-opacity="1" fill="black" text-rendering="geometricPrecision" image-rendering="optimizeQuality" font-family="sans-serif" stroke="black" stroke-opacity="1"
    ><text x="2" xml:space="preserve" y="13" clip-path="url(#clipPath48)" stroke="none"
      >+save()</text
    ></g
    ><g font-size="11px" transform="translate(1004,636)" fill-opacity="1" fill="black" text-rendering="geometricPrecision" image-rendering="optimizeQuality" font-family="sans-serif" stroke="black" font-weight="bold" stroke-opacity="1"
    ><text x="4" xml:space="preserve" y="11" clip-path="url(#clipPath49)" stroke="none"
      >ProductionOrderRepository</text
    ></g
    ><g font-size="11px" transform="translate(1273,367)" fill-opacity="1" fill="rgb(255,175,175)" text-rendering="geometricPrecision" image-rendering="optimizeQuality" font-family="sans-serif" stroke="rgb(255,175,175)" font-weight="bold" stroke-opacity="1"
    ><rect x="0" width="164" height="64" y="0" clip-path="url(#clipPath50)" stroke="none"
    /></g
    ><g fill-opacity="1" text-rendering="geometricPrecision" stroke="black" stroke-linecap="butt" transform="translate(1273,367)" stroke-miterlimit="0" stroke-opacity="1" fill="black" font-weight="bold" font-family="sans-serif" stroke-linejoin="round" font-size="11px" image-rendering="optimizeQuality"
    ><rect fill="none" x="0" width="164" height="64" y="0" clip-path="url(#clipPath50)"
      /><line y2="28" fill="none" x1="0" clip-path="url(#clipPath50)" x2="164" y1="28"
    /></g
    ><g font-size="11px" transform="matrix(1,0,0,1,1273,395)" fill-opacity="1" fill="black" text-rendering="geometricPrecision" image-rendering="optimizeQuality" font-family="sans-serif" stroke="black" stroke-opacity="1"
    ><text x="2" xml:space="preserve" y="13" clip-path="url(#clipPath51)" stroke="none"
      >-Pendente</text
    ></g
    ><g font-size="11px" transform="translate(1273,367)" fill-opacity="1" fill="black" text-rendering="geometricPrecision" image-rendering="optimizeQuality" font-family="sans-serif" stroke="black" font-weight="bold" stroke-opacity="1"
    ><text x="57" xml:space="preserve" y="11" clip-path="url(#clipPath52)" stroke="none"
      >&lt;Enum&gt;</text
      ><text x="20" xml:space="preserve" y="25" clip-path="url(#clipPath52)" stroke="none"
      >ProductionOrderState</text
    ></g
    ><g font-size="11px" transform="translate(1449,514)" fill-opacity="1" fill="rgb(255,175,175)" text-rendering="geometricPrecision" image-rendering="optimizeQuality" font-family="sans-serif" stroke="rgb(255,175,175)" font-weight="bold" stroke-opacity="1"
    ><rect x="0" width="122" height="64" y="0" clip-path="url(#clipPath53)" stroke="none"
    /></g
    ><g fill-opacity="1" text-rendering="geometricPrecision" stroke="black" stroke-linecap="butt" transform="translate(1449,514)" stroke-miterlimit="0" stroke-opacity="1" fill="black" font-weight="bold" font-family="sans-serif" stroke-linejoin="round" font-size="11px" image-rendering="optimizeQuality"
    ><rect fill="none" x="0" width="122" height="64" y="0" clip-path="url(#clipPath53)"
      /><line y2="28" fill="none" x1="0" clip-path="url(#clipPath53)" x2="122" y1="28"
    /></g
    ><g font-size="11px" transform="matrix(1,0,0,1,1449,542)" fill-opacity="1" fill="black" text-rendering="geometricPrecision" image-rendering="optimizeQuality" font-family="sans-serif" stroke="black" stroke-opacity="1"
    ><text x="2" xml:space="preserve" y="13" clip-path="url(#clipPath54)" stroke="none"
      >+valueOf()</text
    ></g
    ><g font-size="11px" transform="translate(1449,514)" fill-opacity="1" fill="black" text-rendering="geometricPrecision" image-rendering="optimizeQuality" font-family="sans-serif" stroke="black" font-weight="bold" stroke-opacity="1"
    ><text x="14" xml:space="preserve" y="11" clip-path="url(#clipPath55)" stroke="none"
      >&lt;Value-Object&gt;</text
      ><text x="32" xml:space="preserve" y="25" clip-path="url(#clipPath55)" stroke="none"
      >ProductID</text
    ></g
    ><g fill-opacity="1" text-rendering="geometricPrecision" stroke="black" stroke-linecap="butt" transform="translate(182,128)" stroke-opacity="1" fill="black" stroke-dasharray="5" font-family="sans-serif" stroke-linejoin="round" font-size="11px" stroke-dashoffset="1" image-rendering="optimizeQuality"
    ><line y2="50" fill="none" x1="50" clip-path="url(#clipPath57)" x2="407" y1="50"
      /><line clip-path="url(#clipPath57)" stroke-dashoffset="0" fill="none" x1="407" x2="395" y1="50" y2="44" stroke-dasharray="none"
      /><line clip-path="url(#clipPath57)" stroke-dashoffset="0" fill="none" x1="407" x2="395" y1="50" y2="56" stroke-dasharray="none"
    /></g
    ><g fill-opacity="1" text-rendering="geometricPrecision" stroke="black" stroke-linecap="butt" transform="translate(614,157)" stroke-opacity="1" fill="black" stroke-dasharray="5" font-family="sans-serif" stroke-linejoin="round" font-size="11px" stroke-dashoffset="1" image-rendering="optimizeQuality"
    ><line y2="273" fill="none" x1="50" clip-path="url(#clipPath59)" x2="50" y1="50"
      /><line clip-path="url(#clipPath59)" stroke-dashoffset="0" fill="none" x1="50" x2="56" y1="273" y2="261" stroke-dasharray="none"
      /><line clip-path="url(#clipPath59)" stroke-dashoffset="0" fill="none" x1="50" x2="44" y1="273" y2="261" stroke-dasharray="none"
    /></g
    ><g fill-opacity="1" text-rendering="geometricPrecision" stroke="black" stroke-linecap="butt" transform="translate(619,422)" stroke-opacity="1" fill="black" stroke-dasharray="5" font-family="sans-serif" stroke-linejoin="round" font-size="11px" stroke-dashoffset="1" image-rendering="optimizeQuality"
    ><line y2="233" fill="none" x1="50" clip-path="url(#clipPath61)" x2="50" y1="50"
      /><line clip-path="url(#clipPath61)" stroke-dashoffset="0" fill="none" x1="50" x2="56" y1="233" y2="221" stroke-dasharray="none"
      /><line clip-path="url(#clipPath61)" stroke-dashoffset="0" fill="none" x1="50" x2="44" y1="233" y2="221" stroke-dasharray="none"
    /></g
    ><g fill-opacity="1" text-rendering="geometricPrecision" stroke="black" stroke-linecap="butt" transform="translate(714,394)" stroke-opacity="1" fill="black" stroke-dasharray="5" font-family="sans-serif" stroke-linejoin="round" font-size="11px" stroke-dashoffset="1" image-rendering="optimizeQuality"
    ><line y2="50" fill="none" x1="50" clip-path="url(#clipPath63)" x2="222" y1="50"
      /><line y2="115" fill="none" x1="222" clip-path="url(#clipPath63)" x2="222" y1="50"
      /><line y2="115" fill="none" x1="222" clip-path="url(#clipPath63)" x2="585" y1="115"
      /><line clip-path="url(#clipPath63)" stroke-dashoffset="0" fill="none" x1="585" x2="573" y1="115" y2="109" stroke-dasharray="none"
      /><line clip-path="url(#clipPath63)" stroke-dashoffset="0" fill="none" x1="585" x2="573" y1="115" y2="121" stroke-dasharray="none"
    /></g
    ><g fill-opacity="1" text-rendering="geometricPrecision" stroke="black" stroke-linecap="butt" transform="translate(801,124)" stroke-opacity="1" fill="black" stroke-dasharray="5" font-family="sans-serif" stroke-linejoin="round" font-size="11px" stroke-dashoffset="1" image-rendering="optimizeQuality"
    ><line y2="50" fill="none" x1="50" clip-path="url(#clipPath65)" x2="399" y1="50"
      /><line clip-path="url(#clipPath65)" stroke-dashoffset="0" fill="none" x1="399" x2="387" y1="50" y2="44" stroke-dasharray="none"
      /><line clip-path="url(#clipPath65)" stroke-dashoffset="0" fill="none" x1="399" x2="387" y1="50" y2="56" stroke-dasharray="none"
    /></g
    ><g fill-opacity="1" text-rendering="geometricPrecision" stroke="black" stroke-linecap="butt" transform="translate(801,156)" stroke-opacity="1" fill="black" stroke-dasharray="5" font-family="sans-serif" stroke-linejoin="round" font-size="11px" stroke-dashoffset="1" image-rendering="optimizeQuality"
    ><line y2="50" fill="none" x1="50" clip-path="url(#clipPath67)" x2="417" y1="50"
      /><line clip-path="url(#clipPath67)" stroke-dashoffset="0" fill="none" x1="417" x2="405" y1="50" y2="44" stroke-dasharray="none"
      /><line clip-path="url(#clipPath67)" stroke-dashoffset="0" fill="none" x1="417" x2="405" y1="50" y2="56" stroke-dasharray="none"
    /></g
    ><g fill-opacity="1" text-rendering="geometricPrecision" stroke="black" stroke-linecap="butt" transform="translate(779,157)" stroke-opacity="1" fill="black" stroke-dasharray="5" font-family="sans-serif" stroke-linejoin="round" font-size="11px" stroke-dashoffset="1" image-rendering="optimizeQuality"
    ><line y2="164" fill="none" x1="50" clip-path="url(#clipPath69)" x2="50" y1="50"
      /><line y2="164" fill="none" x1="50" clip-path="url(#clipPath69)" x2="439" y1="164"
      /><line clip-path="url(#clipPath69)" stroke-dashoffset="0" fill="none" x1="439" x2="427" y1="164" y2="158" stroke-dasharray="none"
      /><line clip-path="url(#clipPath69)" stroke-dashoffset="0" fill="none" x1="439" x2="427" y1="164" y2="170" stroke-dasharray="none"
    /></g
    ><g fill-opacity="1" text-rendering="geometricPrecision" stroke="black" stroke-linecap="butt" transform="translate(779,25)" stroke-opacity="1" fill="black" stroke-dasharray="5" font-family="sans-serif" stroke-linejoin="round" font-size="11px" stroke-dashoffset="1" image-rendering="optimizeQuality"
    ><line y2="50" fill="none" x1="50" clip-path="url(#clipPath71)" x2="50" y1="116"
      /><line y2="50" fill="none" x1="50" clip-path="url(#clipPath71)" x2="809" y1="50"
      /><line y2="748" fill="none" x1="809" clip-path="url(#clipPath71)" x2="818" y1="50"
      /><line y2="748" fill="none" x1="818" clip-path="url(#clipPath71)" x2="743" y1="748"
      /><line clip-path="url(#clipPath71)" stroke-dashoffset="0" fill="none" x1="743" x2="755" y1="748" y2="754" stroke-dasharray="none"
      /><line clip-path="url(#clipPath71)" stroke-dashoffset="0" fill="none" x1="743" x2="755" y1="748" y2="742" stroke-dasharray="none"
    /></g
    ><g fill-opacity="1" text-rendering="geometricPrecision" stroke="black" stroke-linecap="butt" transform="translate(747,157)" stroke-opacity="1" fill="black" stroke-dasharray="5" font-family="sans-serif" stroke-linejoin="round" font-size="11px" stroke-dashoffset="1" image-rendering="optimizeQuality"
    ><line y2="229" fill="none" x1="50" clip-path="url(#clipPath73)" x2="50" y1="50"
      /><line y2="229" fill="none" x1="50" clip-path="url(#clipPath73)" x2="319" y1="229"
      /><line y2="478" fill="none" x1="319" clip-path="url(#clipPath73)" x2="319" y1="229"
      /><line clip-path="url(#clipPath73)" stroke-dashoffset="0" fill="none" x1="319" x2="325" y1="478" y2="466" stroke-dasharray="none"
      /><line clip-path="url(#clipPath73)" stroke-dashoffset="0" fill="none" x1="319" x2="313" y1="478" y2="466" stroke-dasharray="none"
    /></g
    ><g fill-opacity="1" text-rendering="geometricPrecision" stroke="black" stroke-linecap="butt" transform="translate(779,157)" stroke-opacity="1" fill="black" stroke-dasharray="5" font-family="sans-serif" stroke-linejoin="round" font-size="11px" stroke-dashoffset="1" image-rendering="optimizeQuality"
    ><line y2="210" fill="none" x1="50" clip-path="url(#clipPath75)" x2="50" y1="50"
      /><line y2="210" fill="none" x1="50" clip-path="url(#clipPath75)" x2="493" y1="210"
      /><line clip-path="url(#clipPath75)" stroke-dashoffset="0" fill="none" x1="493" x2="481" y1="210" y2="204" stroke-dasharray="none"
      /><line clip-path="url(#clipPath75)" stroke-dashoffset="0" fill="none" x1="493" x2="481" y1="210" y2="216" stroke-dasharray="none"
    /></g
    ><g stroke-linecap="butt" font-size="11px" transform="translate(1369,125)" fill-opacity="1" fill="black" text-rendering="geometricPrecision" image-rendering="optimizeQuality" font-family="sans-serif" stroke-linejoin="round" stroke="black" stroke-opacity="1"
    ><line y2="80" fill="none" x1="50" clip-path="url(#clipPath77)" x2="50" y1="50"
    /></g
    ><g stroke-linecap="butt" font-size="11px" transform="translate(1350,125)" fill-opacity="1" fill="black" text-rendering="geometricPrecision" image-rendering="optimizeQuality" font-family="sans-serif" stroke-linejoin="round" stroke="black" stroke-opacity="1"
    ><line y2="196" fill="none" x1="163" clip-path="url(#clipPath79)" x2="163" y1="50"
      /><line y2="196" fill="none" x1="163" clip-path="url(#clipPath79)" x2="50" y1="196"
    /></g
    ><g stroke-linecap="butt" font-size="11px" transform="translate(1388,107)" fill-opacity="1" fill="black" text-rendering="geometricPrecision" image-rendering="optimizeQuality" font-family="sans-serif" stroke-linejoin="round" stroke="black" stroke-opacity="1"
    ><line y2="50" fill="none" x1="126" clip-path="url(#clipPath81)" x2="155" y1="50"
      /><line y2="279" fill="none" x1="155" clip-path="url(#clipPath81)" x2="155" y1="50"
      /><line y2="279" fill="none" x1="155" clip-path="url(#clipPath81)" x2="50" y1="279"
    /></g
    ><g fill-opacity="1" text-rendering="geometricPrecision" stroke="black" stroke-linecap="butt" transform="translate(714,407)" stroke-opacity="1" fill="black" stroke-dasharray="5" font-family="sans-serif" stroke-linejoin="round" font-size="11px" stroke-dashoffset="1" image-rendering="optimizeQuality"
    ><line y2="50" fill="none" x1="50" clip-path="url(#clipPath83)" x2="787" y1="50"
      /><line y2="106" fill="none" x1="787" clip-path="url(#clipPath83)" x2="787" y1="50"
      /><line clip-path="url(#clipPath83)" stroke-dashoffset="0" fill="none" x1="787" x2="793" y1="106" y2="94" stroke-dasharray="none"
      /><line clip-path="url(#clipPath83)" stroke-dashoffset="0" fill="none" x1="787" x2="781" y1="106" y2="94" stroke-dasharray="none"
    /></g
    ><g stroke-linecap="butt" font-size="11px" transform="translate(703,544)" fill-opacity="1" fill="black" text-rendering="geometricPrecision" image-rendering="optimizeQuality" font-family="sans-serif" stroke-linejoin="round" stroke="black" stroke-opacity="1"
    ><line y2="273" fill="none" x1="50" clip-path="url(#clipPath85)" x2="50" y1="173"
      /><line y2="273" fill="none" x1="50" clip-path="url(#clipPath85)" x2="608" y1="273"
      /><line y2="50" fill="none" x1="608" clip-path="url(#clipPath85)" x2="608" y1="273"
    /></g
    ><g stroke-linecap="butt" font-size="11px" transform="translate(1464,101)" fill-opacity="1" fill="black" text-rendering="geometricPrecision" image-rendering="optimizeQuality" font-family="sans-serif" stroke-linejoin="round" stroke="black" stroke-opacity="1"
    ><line y2="50" fill="none" x1="50" clip-path="url(#clipPath87)" x2="215" y1="50"
      /><line y2="451" fill="none" x1="215" clip-path="url(#clipPath87)" x2="215" y1="50"
      /><line y2="451" fill="none" x1="215" clip-path="url(#clipPath87)" x2="108" y1="451"
    /></g
    ><g font-size="8px" fill-opacity="1" fill="rgb(120,120,120)" text-rendering="geometricPrecision" image-rendering="optimizeQuality" stroke="rgb(120,120,120)" stroke-opacity="1"
    ><text x="0" xml:space="preserve" y="10" stroke="none"
      >Visual Paradigm Standard(joaomachado(Instituto Superior de Engenharia do Porto))</text
    ></g
  ></g
></svg
>
