<?xml version="1.0" encoding="UTF-8"?>
<!DOCTYPE svg PUBLIC '-//W3C//DTD SVG 1.0//EN'
          'http://www.w3.org/TR/2001/REC-SVG-20010904/DTD/svg10.dtd'>
<svg fill-opacity="0" xmlns:xlink="http://www.w3.org/1999/xlink" color-rendering="auto" color-interpolation="auto" text-rendering="auto" stroke="rgb(0,0,0)" stroke-linecap="square" width="2369" stroke-miterlimit="10" shape-rendering="auto" stroke-opacity="0" fill="rgb(0,0,0)" stroke-dasharray="none" font-weight="normal" stroke-width="1" height="716" xmlns="http://www.w3.org/2000/svg" font-family="'Dialog'" font-style="normal" stroke-linejoin="miter" font-size="12px" stroke-dashoffset="0" image-rendering="auto"
><!--Generated by the Batik Graphics2D SVG Generator--><defs id="genericDefs"
  /><g
  ><defs id="defs1"
    ><clipPath clipPathUnits="userSpaceOnUse" id="clipPath1"
      ><path d="M-7 -7 L71 -7 L71 721 L-7 721 L-7 -7 Z"
      /></clipPath
      ><clipPath clipPathUnits="userSpaceOnUse" id="clipPath2"
      ><path d="M-7 -7 L152 -7 L152 721 L-7 721 L-7 -7 Z"
      /></clipPath
      ><clipPath clipPathUnits="userSpaceOnUse" id="clipPath3"
      ><path d="M-7 -7 L19 -7 L19 612 L-7 612 L-7 -7 Z"
      /></clipPath
      ><clipPath clipPathUnits="userSpaceOnUse" id="clipPath4"
      ><path d="M-7 -7 L189 -7 L189 721 L-7 721 L-7 -7 Z"
      /></clipPath
      ><clipPath clipPathUnits="userSpaceOnUse" id="clipPath5"
      ><path d="M-7 -7 L19 -7 L19 155 L-7 155 L-7 -7 Z"
      /></clipPath
      ><clipPath clipPathUnits="userSpaceOnUse" id="clipPath6"
      ><path d="M-7 -7 L134 -7 L134 721 L-7 721 L-7 -7 Z"
      /></clipPath
      ><clipPath clipPathUnits="userSpaceOnUse" id="clipPath7"
      ><path d="M-7 -7 L19 -7 L19 56 L-7 56 L-7 -7 Z"
      /></clipPath
      ><clipPath clipPathUnits="userSpaceOnUse" id="clipPath8"
      ><path d="M-7 -7 L127 -7 L127 721 L-7 721 L-7 -7 Z"
      /></clipPath
      ><clipPath clipPathUnits="userSpaceOnUse" id="clipPath9"
      ><path d="M-7 -7 L19 -7 L19 35 L-7 35 L-7 -7 Z"
      /></clipPath
      ><clipPath clipPathUnits="userSpaceOnUse" id="clipPath10"
      ><path d="M-7 -7 L129 -7 L129 721 L-7 721 L-7 -7 Z"
      /></clipPath
      ><clipPath clipPathUnits="userSpaceOnUse" id="clipPath11"
      ><path d="M-7 -7 L19 -7 L19 23 L-7 23 L-7 -7 Z"
      /></clipPath
      ><clipPath clipPathUnits="userSpaceOnUse" id="clipPath12"
      ><path d="M-7 -7 L81 -7 L81 721 L-7 721 L-7 -7 Z"
      /></clipPath
      ><clipPath clipPathUnits="userSpaceOnUse" id="clipPath13"
      ><path d="M-7 -7 L740 -7 L740 131 L-7 131 L-7 -7 Z"
      /></clipPath
      ><clipPath clipPathUnits="userSpaceOnUse" id="clipPath14"
      ><path d="M-7 -7 L-7 131 L740 131 L740 -7 Z"
      /></clipPath
      ><clipPath clipPathUnits="userSpaceOnUse" id="clipPath15"
      ><path d="M0 0 L0 17 L47 17 L47 0 Z"
      /></clipPath
      ><clipPath clipPathUnits="userSpaceOnUse" id="clipPath16"
      ><path d="M-7 -7 L19 -7 L19 185 L-7 185 L-7 -7 Z"
      /></clipPath
      ><clipPath clipPathUnits="userSpaceOnUse" id="clipPath17"
      ><path d="M-7 -7 L19 -7 L19 107 L-7 107 L-7 -7 Z"
      /></clipPath
      ><clipPath clipPathUnits="userSpaceOnUse" id="clipPath18"
      ><path d="M-7 -7 L19 -7 L19 65 L-7 65 L-7 -7 Z"
      /></clipPath
      ><clipPath clipPathUnits="userSpaceOnUse" id="clipPath19"
      ><path d="M-7 -7 L171 -7 L171 721 L-7 721 L-7 -7 Z"
      /></clipPath
      ><clipPath clipPathUnits="userSpaceOnUse" id="clipPath20"
      ><path d="M-125 -14 L250 -14 L250 28 L-125 28 L-125 -14 Z"
      /></clipPath
      ><clipPath clipPathUnits="userSpaceOnUse" id="clipPath21"
      ><path d="M-141 -14 L282 -14 L282 28 L-141 28 L-141 -14 Z"
      /></clipPath
      ><clipPath clipPathUnits="userSpaceOnUse" id="clipPath22"
      ><path d="M-178 -14 L356 -14 L356 28 L-178 28 L-178 -14 Z"
      /></clipPath
      ><clipPath clipPathUnits="userSpaceOnUse" id="clipPath23"
      ><path d="M-123 -14 L246 -14 L246 28 L-123 28 L-123 -14 Z"
      /></clipPath
      ><clipPath clipPathUnits="userSpaceOnUse" id="clipPath24"
      ><path d="M-116 -14 L232 -14 L232 28 L-116 28 L-116 -14 Z"
      /></clipPath
      ><clipPath clipPathUnits="userSpaceOnUse" id="clipPath25"
      ><path d="M-118 -14 L236 -14 L236 28 L-118 28 L-118 -14 Z"
      /></clipPath
      ><clipPath clipPathUnits="userSpaceOnUse" id="clipPath26"
      ><path d="M-70 -14 L140 -14 L140 28 L-70 28 L-70 -14 Z"
      /></clipPath
      ><clipPath clipPathUnits="userSpaceOnUse" id="clipPath27"
      ><path d="M-160 -14 L320 -14 L320 28 L-160 28 L-160 -14 Z"
      /></clipPath
      ><clipPath clipPathUnits="userSpaceOnUse" id="clipPath28"
      ><path d="M0 0 L541 0 L541 104 L0 104 L0 0 Z"
      /></clipPath
      ><clipPath clipPathUnits="userSpaceOnUse" id="clipPath29"
      ><path d="M341 31 L341 45 L192 45 L192 31 ZM454 61 L454 75 L84 75 L84 61 ZM339 89 L339 103 L196 103 L196 89 ZM109 0 L109 10 L0 10 L0 104 L541 104 L541 0 Z"
      /></clipPath
      ><clipPath clipPathUnits="userSpaceOnUse" id="clipPath30"
      ><path d="M341 1 L341 15 L192 15 L192 1 ZM454 31 L454 45 L84 45 L84 31 ZM339 59 L339 73 L196 73 L196 59 ZM0 0 L0 104 L541 104 L541 0 Z"
      /></clipPath
      ><clipPath clipPathUnits="userSpaceOnUse" id="clipPath31"
      ><path d="M454 1 L454 15 L84 15 L84 1 ZM339 29 L339 43 L196 43 L196 29 ZM0 0 L0 104 L541 104 L541 0 Z"
      /></clipPath
      ><clipPath clipPathUnits="userSpaceOnUse" id="clipPath32"
      ><path d="M0 0 L484 0 L484 104 L0 104 L0 0 Z"
      /></clipPath
      ><clipPath clipPathUnits="userSpaceOnUse" id="clipPath33"
      ><path d="M279 31 L279 45 L202 45 L202 31 ZM313 67 L313 81 L167 81 L167 67 ZM0 0 L0 104 L484 104 L484 0 Z"
      /></clipPath
      ><clipPath clipPathUnits="userSpaceOnUse" id="clipPath34"
      ><path d="M313 31 L313 45 L167 45 L167 31 ZM0 0 L0 104 L484 104 L484 0 L279 0 L279 9 L202 9 L202 0 Z"
      /></clipPath
      ><clipPath clipPathUnits="userSpaceOnUse" id="clipPath35"
      ><path d="M0 0 L489 0 L489 104 L0 104 L0 0 Z"
      /></clipPath
      ><clipPath clipPathUnits="userSpaceOnUse" id="clipPath36"
      ><path d="M304 28 L304 42 L178 42 L178 28 ZM0 0 L0 104 L489 104 L489 96 L480 96 L480 82 L489 82 L489 0 Z"
      /></clipPath
      ><clipPath clipPathUnits="userSpaceOnUse" id="clipPath37"
      ><path d="M0 0 L384 0 L384 104 L0 104 L0 0 Z"
      /></clipPath
      ><clipPath clipPathUnits="userSpaceOnUse" id="clipPath38"
      ><path d="M238 31 L238 45 L140 45 L140 31 ZM203 73 L203 87 L87 87 L87 73 ZM0 0 L0 104 L384 104 L384 0 Z"
      /></clipPath
      ><clipPath clipPathUnits="userSpaceOnUse" id="clipPath39"
      ><path d="M0 0 L402 0 L402 104 L0 104 L0 0 Z"
      /></clipPath
      ><clipPath clipPathUnits="userSpaceOnUse" id="clipPath40"
      ><path d="M253 30 L253 44 L144 44 L144 30 ZM0 0 L0 97 L74 97 L74 104 L402 104 L402 0 Z"
      /></clipPath
      ><clipPath clipPathUnits="userSpaceOnUse" id="clipPath41"
      ><path d="M0 0 L1083 0 L1083 104 L0 104 L0 0 Z"
      /></clipPath
      ><clipPath clipPathUnits="userSpaceOnUse" id="clipPath42"
      ><path d="M596 31 L596 45 L480 45 L480 31 ZM755 64 L755 78 L549 78 L549 64 ZM0 0 L0 104 L1083 104 L1083 0 L934 0 L934 11 L825 11 L825 0 L631 0 L631 3 L533 3 L533 0 Z"
      /></clipPath
      ><clipPath clipPathUnits="userSpaceOnUse" id="clipPath43"
      ><path d="M0 0 L1309 0 L1309 104 L0 104 L0 0 Z"
      /></clipPath
      ><clipPath clipPathUnits="userSpaceOnUse" id="clipPath44"
      ><path d="M755 31 L755 45 L549 45 L549 31 ZM0 0 L0 104 L1309 104 L1309 0 L596 0 L596 12 L480 12 L480 0 Z"
      /></clipPath
      ><clipPath clipPathUnits="userSpaceOnUse" id="clipPath45"
      ><path d="M333 31 L333 45 L202 45 L202 31 ZM336 52 L336 66 L200 66 L200 52 ZM0 0 L0 104 L541 104 L541 0 Z"
      /></clipPath
      ><clipPath clipPathUnits="userSpaceOnUse" id="clipPath46"
      ><path d="M333 10 L333 24 L202 24 L202 10 ZM336 31 L336 45 L200 45 L200 31 ZM0 0 L0 104 L541 104 L541 0 Z"
      /></clipPath
      ><clipPath clipPathUnits="userSpaceOnUse" id="clipPath47"
      ><path d="M0 0 L134 0 L134 124 L0 124 L0 0 Z"
      /></clipPath
      ><clipPath clipPathUnits="userSpaceOnUse" id="clipPath48"
      ><path d="M0 0 L0 124 L134 124 L134 70 L97 70 L97 56 L134 56 L134 0 Z"
      /></clipPath
      ><clipPath clipPathUnits="userSpaceOnUse" id="clipPath49"
      ><path d="M362 31 L362 45 L172 45 L172 31 ZM335 61 L335 75 L200 75 L200 61 ZM0 0 L0 104 L541 104 L541 102 L518 102 L518 49 L541 49 L541 0 Z"
      /></clipPath
      ><clipPath clipPathUnits="userSpaceOnUse" id="clipPath50"
      ><path d="M362 1 L362 15 L172 15 L172 1 ZM335 31 L335 45 L200 45 L200 31 ZM0 0 L0 104 L541 104 L541 72 L518 72 L518 19 L541 19 L541 0 Z"
      /></clipPath
      ><clipPath clipPathUnits="userSpaceOnUse" id="clipPath51"
      ><path d="M0 0 L0 104 L484 104 L484 0 L424 0 L424 42 L73 42 L73 0 Z"
      /></clipPath
      ><clipPath clipPathUnits="userSpaceOnUse" id="clipPath52"
      ><path d="M297 32 L297 46 L178 46 L178 32 ZM36 0 L36 12 L0 12 L0 104 L489 104 L489 0 Z"
      /></clipPath
      ><clipPath clipPathUnits="userSpaceOnUse" id="clipPath53"
      ><path d="M238 29 L238 43 L140 43 L140 29 ZM0 0 L0 104 L384 104 L384 0 Z"
      /></clipPath
      ><clipPath clipPathUnits="userSpaceOnUse" id="clipPath54"
      ><path d="M0 0 L803 0 L803 104 L0 104 L0 0 Z"
      /></clipPath
      ><clipPath clipPathUnits="userSpaceOnUse" id="clipPath55"
      ><path d="M437 31 L437 45 L361 45 L361 31 ZM0 0 L0 80 L481 80 L481 100 L0 100 L0 104 L803 104 L803 0 Z"
      /></clipPath
      ><clipPath clipPathUnits="userSpaceOnUse" id="clipPath56"
      ><path d="M0 0 L1484 0 L1484 104 L0 104 L0 0 Z"
      /></clipPath
      ><clipPath clipPathUnits="userSpaceOnUse" id="clipPath57"
      ><path d="M1162 20 L1162 40 L104 40 L104 20 ZM0 0 L0 104 L1484 104 L1484 0 Z"
      /></clipPath
      ><clipPath clipPathUnits="userSpaceOnUse" id="clipPath58"
      ><path d="M310 31 L310 45 L224 45 L224 31 ZM0 0 L0 104 L541 104 L541 0 Z"
      /></clipPath
      ><clipPath clipPathUnits="userSpaceOnUse" id="clipPath59"
      ><path d="M-86 -14 L172 -14 L172 28 L-86 28 L-86 -14 Z"
      /></clipPath
      ><clipPath clipPathUnits="userSpaceOnUse" id="clipPath60"
      ><path d="M-1058 -20 L2116 -20 L2116 40 L-1058 40 L-1058 -20 Z"
      /></clipPath
      ><clipPath clipPathUnits="userSpaceOnUse" id="clipPath61"
      ><path d="M-76 -14 L152 -14 L152 28 L-76 28 L-76 -14 Z"
      /></clipPath
      ><clipPath clipPathUnits="userSpaceOnUse" id="clipPath62"
      ><path d="M-98 -14 L196 -14 L196 28 L-98 28 L-98 -14 Z"
      /></clipPath
      ><clipPath clipPathUnits="userSpaceOnUse" id="clipPath63"
      ><path d="M-119 -14 L238 -14 L238 28 L-119 28 L-119 -14 Z"
      /></clipPath
      ><clipPath clipPathUnits="userSpaceOnUse" id="clipPath64"
      ><path d="M-351 -53 L702 -53 L702 106 L-351 106 L-351 -53 Z"
      /></clipPath
      ><clipPath clipPathUnits="userSpaceOnUse" id="clipPath65"
      ><path d="M-135 -14 L270 -14 L270 28 L-135 28 L-135 -14 Z"
      /></clipPath
      ><clipPath clipPathUnits="userSpaceOnUse" id="clipPath66"
      ><path d="M-190 -14 L380 -14 L380 28 L-190 28 L-190 -14 Z"
      /></clipPath
      ><clipPath clipPathUnits="userSpaceOnUse" id="clipPath67"
      ><path d="M-150 -14 L300 -14 L300 28 L-150 28 L-150 -14 Z"
      /></clipPath
      ><clipPath clipPathUnits="userSpaceOnUse" id="clipPath68"
      ><path d="M-136 -14 L272 -14 L272 28 L-136 28 L-136 -14 Z"
      /></clipPath
      ><clipPath clipPathUnits="userSpaceOnUse" id="clipPath69"
      ><path d="M-131 -14 L262 -14 L262 28 L-131 28 L-131 -14 Z"
      /></clipPath
      ><clipPath clipPathUnits="userSpaceOnUse" id="clipPath70"
      ><path d="M-206 -14 L412 -14 L412 28 L-206 28 L-206 -14 Z"
      /></clipPath
      ><clipPath clipPathUnits="userSpaceOnUse" id="clipPath71"
      ><path d="M-109 -14 L218 -14 L218 28 L-109 28 L-109 -14 Z"
      /></clipPath
      ><clipPath clipPathUnits="userSpaceOnUse" id="clipPath72"
      ><path d="M-126 -14 L252 -14 L252 28 L-126 28 L-126 -14 Z"
      /></clipPath
      ><clipPath clipPathUnits="userSpaceOnUse" id="clipPath73"
      ><path d="M-146 -14 L292 -14 L292 28 L-146 28 L-146 -14 Z"
      /></clipPath
      ><clipPath clipPathUnits="userSpaceOnUse" id="clipPath74"
      ><path d="M-77 -14 L154 -14 L154 28 L-77 28 L-77 -14 Z"
      /></clipPath
      ><clipPath clipPathUnits="userSpaceOnUse" id="clipPath75"
      ><path d="M-143 -14 L286 -14 L286 28 L-143 28 L-143 -14 Z"
      /></clipPath
      ><clipPath clipPathUnits="userSpaceOnUse" id="clipPath76"
      ><path d="M-370 -14 L740 -14 L740 28 L-370 28 L-370 -14 Z"
      /></clipPath
      ><clipPath clipPathUnits="userSpaceOnUse" id="clipPath77"
      ><path d="M-149 -14 L298 -14 L298 28 L-149 28 L-149 -14 Z"
      /></clipPath
    ></defs
    ><g fill="white" text-rendering="geometricPrecision" fill-opacity="1" stroke-opacity="1" stroke="white"
    ><rect x="0" width="2369" height="716" y="0" stroke="none"
    /></g
    ><g font-size="11px" transform="translate(34,2)" fill-opacity="1" fill="rgb(122,207,245)" text-rendering="geometricPrecision" image-rendering="optimizeQuality" font-family="sans-serif" stroke="rgb(122,207,245)" stroke-opacity="1"
    ><circle r="5" clip-path="url(#clipPath1)" cx="30" cy="5" stroke="none"
      /><rect x="26" width="8" height="660" y="49" clip-path="url(#clipPath1)" stroke="none"
    /></g
    ><g stroke-linecap="butt" font-size="11px" transform="translate(34,2)" fill-opacity="1" fill="black" text-rendering="geometricPrecision" image-rendering="optimizeQuality" font-family="sans-serif" stroke-linejoin="round" stroke="black" stroke-opacity="1" stroke-miterlimit="0"
    ><circle fill="none" r="5" clip-path="url(#clipPath1)" cx="30" cy="5"
      /><rect fill="none" x="26" width="8" height="660" y="49" clip-path="url(#clipPath1)"
      /><line y2="25" fill="none" x1="30" clip-path="url(#clipPath1)" x2="30" y1="10"
      /><line y2="36" fill="none" x1="30" clip-path="url(#clipPath1)" x2="21" y1="25"
      /><line y2="36" fill="none" x1="30" clip-path="url(#clipPath1)" x2="39" y1="25"
      /><line y2="16" fill="none" x1="21" clip-path="url(#clipPath1)" x2="39" y1="16"
    /></g
    ><g font-size="11px" transform="translate(439,2)" fill-opacity="1" fill="rgb(122,207,245)" text-rendering="geometricPrecision" image-rendering="optimizeQuality" font-family="sans-serif" stroke="rgb(122,207,245)" stroke-opacity="1"
    ><rect x="0" width="140" height="35" y="0" clip-path="url(#clipPath2)" stroke="none"
    /></g
    ><g stroke-linecap="butt" font-size="11px" transform="translate(439,2)" fill-opacity="1" fill="black" text-rendering="geometricPrecision" image-rendering="optimizeQuality" font-family="sans-serif" stroke-linejoin="round" stroke="black" stroke-opacity="1" stroke-miterlimit="0"
    ><rect fill="none" x="0" width="140" height="35" y="0" clip-path="url(#clipPath2)"
      /><line clip-path="url(#clipPath2)" fill="none" x1="70" x2="70" y1="35" y2="710" stroke-linejoin="bevel" stroke-dasharray="8,3"
    /></g
    ><g font-size="11px" transform="translate(505,91)" fill-opacity="1" fill="rgb(122,207,245)" text-rendering="geometricPrecision" image-rendering="optimizeQuality" font-family="sans-serif" stroke="rgb(122,207,245)" stroke-opacity="1"
    ><rect x="0" width="8" height="601" y="0" clip-path="url(#clipPath3)" stroke="none"
    /></g
    ><g stroke-linecap="butt" font-size="11px" transform="translate(505,91)" fill-opacity="1" fill="black" text-rendering="geometricPrecision" image-rendering="optimizeQuality" font-family="sans-serif" stroke-linejoin="round" stroke="black" stroke-opacity="1" stroke-miterlimit="0"
    ><rect fill="none" x="0" width="8" height="601" y="0" clip-path="url(#clipPath3)"
    /></g
    ><g font-size="11px" transform="translate(808,2)" fill-opacity="1" fill="rgb(122,207,245)" text-rendering="geometricPrecision" image-rendering="optimizeQuality" font-family="sans-serif" stroke="rgb(122,207,245)" stroke-opacity="1"
    ><rect x="0" width="177" height="35" y="0" clip-path="url(#clipPath4)" stroke="none"
    /></g
    ><g stroke-linecap="butt" font-size="11px" transform="translate(808,2)" fill-opacity="1" fill="black" text-rendering="geometricPrecision" image-rendering="optimizeQuality" font-family="sans-serif" stroke-linejoin="round" stroke="black" stroke-opacity="1" stroke-miterlimit="0"
    ><rect fill="none" x="0" width="177" height="35" y="0" clip-path="url(#clipPath4)"
      /><line clip-path="url(#clipPath4)" fill="none" x1="88" x2="88" y1="35" y2="710" stroke-linejoin="bevel" stroke-dasharray="8,3"
    /></g
    ><g font-size="11px" transform="translate(893,171)" fill-opacity="1" fill="rgb(122,207,245)" text-rendering="geometricPrecision" image-rendering="optimizeQuality" font-family="sans-serif" stroke="rgb(122,207,245)" stroke-opacity="1"
    ><rect x="0" width="8" height="144" y="0" clip-path="url(#clipPath5)" stroke="none"
    /></g
    ><g stroke-linecap="butt" font-size="11px" transform="translate(893,171)" fill-opacity="1" fill="black" text-rendering="geometricPrecision" image-rendering="optimizeQuality" font-family="sans-serif" stroke-linejoin="round" stroke="black" stroke-opacity="1" stroke-miterlimit="0"
    ><rect fill="none" x="0" width="8" height="144" y="0" clip-path="url(#clipPath5)"
    /></g
    ><g font-size="11px" transform="translate(1229,2)" fill-opacity="1" fill="rgb(122,207,245)" text-rendering="geometricPrecision" image-rendering="optimizeQuality" font-family="sans-serif" stroke="rgb(122,207,245)" stroke-opacity="1"
    ><rect x="0" width="122" height="35" y="0" clip-path="url(#clipPath6)" stroke="none"
    /></g
    ><g stroke-linecap="butt" font-size="11px" transform="translate(1229,2)" fill-opacity="1" fill="black" text-rendering="geometricPrecision" image-rendering="optimizeQuality" font-family="sans-serif" stroke-linejoin="round" stroke="black" stroke-opacity="1" stroke-miterlimit="0"
    ><rect fill="none" x="0" width="122" height="35" y="0" clip-path="url(#clipPath6)"
      /><line clip-path="url(#clipPath6)" fill="none" x1="61" x2="61" y1="35" y2="710" stroke-linejoin="bevel" stroke-dasharray="8,3"
    /></g
    ><g font-size="11px" transform="translate(1286,216)" fill-opacity="1" fill="rgb(122,207,245)" text-rendering="geometricPrecision" image-rendering="optimizeQuality" font-family="sans-serif" stroke="rgb(122,207,245)" stroke-opacity="1"
    ><rect x="0" width="8" height="45" y="0" clip-path="url(#clipPath7)" stroke="none"
    /></g
    ><g stroke-linecap="butt" font-size="11px" transform="translate(1286,216)" fill-opacity="1" fill="black" text-rendering="geometricPrecision" image-rendering="optimizeQuality" font-family="sans-serif" stroke-linejoin="round" stroke="black" stroke-opacity="1" stroke-miterlimit="0"
    ><rect fill="none" x="0" width="8" height="45" y="0" clip-path="url(#clipPath7)"
    /></g
    ><g font-size="11px" transform="translate(1520,2)" fill-opacity="1" fill="rgb(122,207,245)" text-rendering="geometricPrecision" image-rendering="optimizeQuality" font-family="sans-serif" stroke="rgb(122,207,245)" stroke-opacity="1"
    ><rect x="0" width="115" height="35" y="0" clip-path="url(#clipPath8)" stroke="none"
    /></g
    ><g stroke-linecap="butt" font-size="11px" transform="translate(1520,2)" fill-opacity="1" fill="black" text-rendering="geometricPrecision" image-rendering="optimizeQuality" font-family="sans-serif" stroke-linejoin="round" stroke="black" stroke-opacity="1" stroke-miterlimit="0"
    ><rect fill="none" x="0" width="115" height="35" y="0" clip-path="url(#clipPath8)"
      /><line clip-path="url(#clipPath8)" fill="none" x1="57" x2="57" y1="35" y2="710" stroke-linejoin="bevel" stroke-dasharray="8,3"
    /></g
    ><g font-size="11px" transform="translate(1574,225)" fill-opacity="1" fill="rgb(122,207,245)" text-rendering="geometricPrecision" image-rendering="optimizeQuality" font-family="sans-serif" stroke="rgb(122,207,245)" stroke-opacity="1"
    ><rect x="0" width="8" height="24" y="0" clip-path="url(#clipPath9)" stroke="none"
    /></g
    ><g stroke-linecap="butt" font-size="11px" transform="translate(1574,225)" fill-opacity="1" fill="black" text-rendering="geometricPrecision" image-rendering="optimizeQuality" font-family="sans-serif" stroke-linejoin="round" stroke="black" stroke-opacity="1" stroke-miterlimit="0"
    ><rect fill="none" x="0" width="8" height="24" y="0" clip-path="url(#clipPath9)"
    /></g
    ><g font-size="11px" transform="translate(1825,2)" fill-opacity="1" fill="rgb(122,207,245)" text-rendering="geometricPrecision" image-rendering="optimizeQuality" font-family="sans-serif" stroke="rgb(122,207,245)" stroke-opacity="1"
    ><rect x="0" width="117" height="35" y="0" clip-path="url(#clipPath10)" stroke="none"
    /></g
    ><g stroke-linecap="butt" font-size="11px" transform="translate(1825,2)" fill-opacity="1" fill="black" text-rendering="geometricPrecision" image-rendering="optimizeQuality" font-family="sans-serif" stroke-linejoin="round" stroke="black" stroke-opacity="1" stroke-miterlimit="0"
    ><rect fill="none" x="0" width="117" height="35" y="0" clip-path="url(#clipPath10)"
      /><line clip-path="url(#clipPath10)" fill="none" x1="58" x2="58" y1="35" y2="710" stroke-linejoin="bevel" stroke-dasharray="8,3"
    /></g
    ><g font-size="11px" transform="translate(1880,234)" fill-opacity="1" fill="rgb(122,207,245)" text-rendering="geometricPrecision" image-rendering="optimizeQuality" font-family="sans-serif" stroke="rgb(122,207,245)" stroke-opacity="1"
    ><rect x="0" width="8" height="12" y="0" clip-path="url(#clipPath11)" stroke="none"
    /></g
    ><g stroke-linecap="butt" font-size="11px" transform="translate(1880,234)" fill-opacity="1" fill="black" text-rendering="geometricPrecision" image-rendering="optimizeQuality" font-family="sans-serif" stroke-linejoin="round" stroke="black" stroke-opacity="1" stroke-miterlimit="0"
    ><rect fill="none" x="0" width="8" height="12" y="0" clip-path="url(#clipPath11)"
    /></g
    ><g font-size="11px" transform="translate(1880,267)" fill-opacity="1" fill="rgb(122,207,245)" text-rendering="geometricPrecision" image-rendering="optimizeQuality" font-family="sans-serif" stroke="rgb(122,207,245)" stroke-opacity="1"
    ><rect x="0" width="8" height="12" y="0" clip-path="url(#clipPath11)" stroke="none"
    /></g
    ><g stroke-linecap="butt" font-size="11px" transform="translate(1880,267)" fill-opacity="1" fill="black" text-rendering="geometricPrecision" image-rendering="optimizeQuality" font-family="sans-serif" stroke-linejoin="round" stroke="black" stroke-opacity="1" stroke-miterlimit="0"
    ><rect fill="none" x="0" width="8" height="12" y="0" clip-path="url(#clipPath11)"
    /></g
    ><g font-size="11px" transform="translate(2075,2)" fill-opacity="1" fill="rgb(122,207,245)" text-rendering="geometricPrecision" image-rendering="optimizeQuality" font-family="sans-serif" stroke="rgb(122,207,245)" stroke-opacity="1"
    ><rect x="0" width="69" height="35" y="0" clip-path="url(#clipPath12)" stroke="none"
    /></g
    ><g stroke-linecap="butt" font-size="11px" transform="translate(2075,2)" fill-opacity="1" fill="black" text-rendering="geometricPrecision" image-rendering="optimizeQuality" font-family="sans-serif" stroke-linejoin="round" stroke="black" stroke-opacity="1" stroke-miterlimit="0"
    ><rect fill="none" x="0" width="69" height="35" y="0" clip-path="url(#clipPath12)"
      /><line clip-path="url(#clipPath12)" fill="none" x1="34" x2="34" y1="35" y2="710" stroke-linejoin="bevel" stroke-dasharray="8,3"
    /></g
    ><g font-size="11px" transform="translate(2106,300)" fill-opacity="1" fill="rgb(122,207,245)" text-rendering="geometricPrecision" image-rendering="optimizeQuality" font-family="sans-serif" stroke="rgb(122,207,245)" stroke-opacity="1"
    ><rect x="0" width="8" height="12" y="0" clip-path="url(#clipPath11)" stroke="none"
    /></g
    ><g stroke-linecap="butt" font-size="11px" transform="translate(2106,300)" fill-opacity="1" fill="black" text-rendering="geometricPrecision" image-rendering="optimizeQuality" font-family="sans-serif" stroke-linejoin="round" stroke="black" stroke-opacity="1" stroke-miterlimit="0"
    ><rect fill="none" x="0" width="8" height="12" y="0" clip-path="url(#clipPath11)"
    /></g
    ><g stroke-linecap="butt" font-size="11px" transform="translate(26,308)" fill-opacity="1" fill="black" text-rendering="geometricPrecision" image-rendering="optimizeQuality" font-family="sans-serif" stroke-linejoin="round" stroke="black" stroke-opacity="1" stroke-miterlimit="0"
    ><rect fill="none" x="0" width="729" height="120" y="0" clip-path="url(#clipPath14)"
    /></g
    ><g font-size="11px" transform="translate(26,308)" fill-opacity="1" fill="white" text-rendering="geometricPrecision" image-rendering="optimizeQuality" font-family="sans-serif" stroke="white" stroke-opacity="1"
    ><path d="M46 0 L46 8 L40 16 L0 16 L0 0 Z" stroke="none" clip-path="url(#clipPath14)"
    /></g
    ><g stroke-linecap="butt" font-size="11px" transform="translate(26,308)" fill-opacity="1" fill="black" text-rendering="geometricPrecision" image-rendering="optimizeQuality" font-family="sans-serif" stroke-linejoin="round" stroke="black" stroke-opacity="1" stroke-miterlimit="0"
    ><path fill="none" d="M46 0 L46 8 L40 16 L0 16 L0 0 Z" clip-path="url(#clipPath14)"
    /></g
    ><g font-size="11px" transform="translate(26,308)" fill-opacity="1" fill="black" text-rendering="geometricPrecision" image-rendering="optimizeQuality" font-family="sans-serif" stroke="black" stroke-opacity="1"
    ><text x="10" xml:space="preserve" y="11" clip-path="url(#clipPath15)" stroke="none"
      >Loop</text
    ></g
    ><g font-size="11px" transform="translate(893,510)" fill-opacity="1" fill="rgb(122,207,245)" text-rendering="geometricPrecision" image-rendering="optimizeQuality" font-family="sans-serif" stroke="rgb(122,207,245)" stroke-opacity="1"
    ><rect x="0" width="8" height="174" y="0" clip-path="url(#clipPath16)" stroke="none"
    /></g
    ><g stroke-linecap="butt" font-size="11px" transform="translate(893,510)" fill-opacity="1" fill="black" text-rendering="geometricPrecision" image-rendering="optimizeQuality" font-family="sans-serif" stroke-linejoin="round" stroke="black" stroke-opacity="1" stroke-miterlimit="0"
    ><rect fill="none" x="0" width="8" height="174" y="0" clip-path="url(#clipPath16)"
    /></g
    ><g font-size="11px" transform="translate(1286,540)" fill-opacity="1" fill="rgb(122,207,245)" text-rendering="geometricPrecision" image-rendering="optimizeQuality" font-family="sans-serif" stroke="rgb(122,207,245)" stroke-opacity="1"
    ><rect x="0" width="8" height="96" y="0" clip-path="url(#clipPath17)" stroke="none"
    /></g
    ><g stroke-linecap="butt" font-size="11px" transform="translate(1286,540)" fill-opacity="1" fill="black" text-rendering="geometricPrecision" image-rendering="optimizeQuality" font-family="sans-serif" stroke-linejoin="round" stroke="black" stroke-opacity="1" stroke-miterlimit="0"
    ><rect fill="none" x="0" width="8" height="96" y="0" clip-path="url(#clipPath17)"
    /></g
    ><g font-size="11px" transform="translate(1574,570)" fill-opacity="1" fill="rgb(122,207,245)" text-rendering="geometricPrecision" image-rendering="optimizeQuality" font-family="sans-serif" stroke="rgb(122,207,245)" stroke-opacity="1"
    ><rect x="0" width="8" height="54" y="0" clip-path="url(#clipPath18)" stroke="none"
    /></g
    ><g stroke-linecap="butt" font-size="11px" transform="translate(1574,570)" fill-opacity="1" fill="black" text-rendering="geometricPrecision" image-rendering="optimizeQuality" font-family="sans-serif" stroke-linejoin="round" stroke="black" stroke-opacity="1" stroke-miterlimit="0"
    ><rect fill="none" x="0" width="8" height="54" y="0" clip-path="url(#clipPath18)"
    /></g
    ><g font-size="11px" transform="translate(2205,2)" fill-opacity="1" fill="rgb(122,207,245)" text-rendering="geometricPrecision" image-rendering="optimizeQuality" font-family="sans-serif" stroke="rgb(122,207,245)" stroke-opacity="1"
    ><rect x="0" width="159" height="35" y="0" clip-path="url(#clipPath19)" stroke="none"
    /></g
    ><g stroke-linecap="butt" font-size="11px" transform="translate(2205,2)" fill-opacity="1" fill="black" text-rendering="geometricPrecision" image-rendering="optimizeQuality" font-family="sans-serif" stroke-linejoin="round" stroke="black" stroke-opacity="1" stroke-miterlimit="0"
    ><rect fill="none" x="0" width="159" height="35" y="0" clip-path="url(#clipPath19)"
      /><line clip-path="url(#clipPath19)" fill="none" x1="79" x2="79" y1="35" y2="710" stroke-linejoin="bevel" stroke-dasharray="8,3"
    /></g
    ><g font-size="11px" transform="translate(2281,600)" fill-opacity="1" fill="rgb(122,207,245)" text-rendering="geometricPrecision" image-rendering="optimizeQuality" font-family="sans-serif" stroke="rgb(122,207,245)" stroke-opacity="1"
    ><rect x="0" width="8" height="12" y="0" clip-path="url(#clipPath11)" stroke="none"
    /></g
    ><g stroke-linecap="butt" font-size="11px" transform="translate(2281,600)" fill-opacity="1" fill="black" text-rendering="geometricPrecision" image-rendering="optimizeQuality" font-family="sans-serif" stroke-linejoin="round" stroke="black" stroke-opacity="1" stroke-miterlimit="0"
    ><rect fill="none" x="0" width="8" height="12" y="0" clip-path="url(#clipPath11)"
    /></g
    ><g font-size="11px" transform="translate(2281,660)" fill-opacity="1" fill="rgb(122,207,245)" text-rendering="geometricPrecision" image-rendering="optimizeQuality" font-family="sans-serif" stroke="rgb(122,207,245)" stroke-opacity="1"
    ><rect x="0" width="8" height="12" y="0" clip-path="url(#clipPath11)" stroke="none"
    /></g
    ><g stroke-linecap="butt" font-size="11px" transform="translate(2281,660)" fill-opacity="1" fill="black" text-rendering="geometricPrecision" image-rendering="optimizeQuality" font-family="sans-serif" stroke-linejoin="round" stroke="black" stroke-opacity="1" stroke-miterlimit="0"
    ><rect fill="none" x="0" width="8" height="12" y="0" clip-path="url(#clipPath11)"
    /></g
    ><g font-size="11px" transform="translate(2,37)" fill-opacity="1" fill="black" text-rendering="geometricPrecision" image-rendering="optimizeQuality" font-family="sans-serif" stroke="black" stroke-opacity="1"
    ><text x="10" xml:space="preserve" y="11" clip-path="url(#clipPath20)" stroke="none"
      >Gestor de Produção</text
    ></g
    ><g font-size="11px" transform="translate(439,2)" fill-opacity="1" fill="black" text-rendering="geometricPrecision" image-rendering="optimizeQuality" font-family="sans-serif" stroke="black" stroke-opacity="1"
    ><text x="9" xml:space="preserve" y="11" clip-path="url(#clipPath21)" stroke="none"
      >AddProductionOrderUI</text
    ></g
    ><g font-size="11px" transform="translate(808,2)" fill-opacity="1" fill="black" text-rendering="geometricPrecision" image-rendering="optimizeQuality" font-family="sans-serif" stroke="black" stroke-opacity="1"
    ><text x="6" xml:space="preserve" y="11" clip-path="url(#clipPath22)" stroke="none"
      >AddProductionOrderController</text
    ></g
    ><g font-size="11px" transform="translate(1229,2)" fill-opacity="1" fill="black" text-rendering="geometricPrecision" image-rendering="optimizeQuality" font-family="sans-serif" stroke="black" stroke-opacity="1"
    ><text x="9" xml:space="preserve" y="11" clip-path="url(#clipPath23)" stroke="none"
      >PersistenceContext</text
    ></g
    ><g font-size="11px" transform="translate(1520,2)" fill-opacity="1" fill="black" text-rendering="geometricPrecision" image-rendering="optimizeQuality" font-family="sans-serif" stroke="black" stroke-opacity="1"
    ><text x="9" xml:space="preserve" y="11" clip-path="url(#clipPath24)" stroke="none"
      >RepositoryFactory</text
    ></g
    ><g font-size="11px" transform="translate(1825,2)" fill-opacity="1" fill="black" text-rendering="geometricPrecision" image-rendering="optimizeQuality" font-family="sans-serif" stroke="black" stroke-opacity="1"
    ><text x="10" xml:space="preserve" y="11" clip-path="url(#clipPath25)" stroke="none"
      >ProductRepository</text
    ></g
    ><g font-size="11px" transform="translate(2075,2)" fill-opacity="1" fill="black" text-rendering="geometricPrecision" image-rendering="optimizeQuality" font-family="sans-serif" stroke="black" stroke-opacity="1"
    ><text x="14" xml:space="preserve" y="11" clip-path="url(#clipPath26)" stroke="none"
      >Product</text
    ></g
    ><g font-size="11px" transform="translate(2205,2)" fill-opacity="1" fill="black" text-rendering="geometricPrecision" image-rendering="optimizeQuality" font-family="sans-serif" stroke="black" stroke-opacity="1"
    ><text x="7" xml:space="preserve" y="11" clip-path="url(#clipPath27)" stroke="none"
      >ProductionOrderRepository</text
    ></g
    ><g stroke-linecap="butt" font-size="11px" transform="translate(18,41)" fill-opacity="1" fill="black" text-rendering="geometricPrecision" image-rendering="optimizeQuality" font-family="sans-serif" stroke-linejoin="round" stroke="black" stroke-opacity="1"
    ><line y2="50" fill="none" x1="50" clip-path="url(#clipPath29)" x2="487" y1="50"
      /><polygon points=" 487 50 475 44 475 56" clip-path="url(#clipPath29)" stroke="none"
      /><polygon fill="none" points=" 487 50 475 44 475 56" clip-path="url(#clipPath29)"
    /></g
    ><g fill-opacity="1" text-rendering="geometricPrecision" stroke="black" stroke-linecap="butt" transform="translate(18,71)" stroke-miterlimit="0" stroke-opacity="1" fill="black" stroke-dasharray="8,3" font-family="sans-serif" stroke-linejoin="round" font-size="11px" image-rendering="optimizeQuality"
    ><line y2="50" fill="none" x1="487" clip-path="url(#clipPath30)" x2="50" y1="50"
      /><line clip-path="url(#clipPath30)" fill="none" x1="50" x2="62" y1="50" y2="56" stroke-dasharray="none" stroke-miterlimit="10"
      /><line clip-path="url(#clipPath30)" fill="none" x1="50" x2="62" y1="50" y2="44" stroke-dasharray="none" stroke-miterlimit="10"
    /></g
    ><g stroke-linecap="butt" font-size="11px" transform="translate(18,101)" fill-opacity="1" fill="black" text-rendering="geometricPrecision" image-rendering="optimizeQuality" font-family="sans-serif" stroke-linejoin="round" stroke="black" stroke-opacity="1"
    ><line y2="50" fill="none" x1="50" clip-path="url(#clipPath31)" x2="487" y1="50"
      /><polygon points=" 487 50 475 44 475 56" clip-path="url(#clipPath31)" stroke="none"
      /><polygon fill="none" points=" 487 50 475 44 475 56" clip-path="url(#clipPath31)"
    /></g
    ><g stroke-linecap="butt" font-size="11px" transform="translate(463,121)" fill-opacity="1" fill="black" text-rendering="geometricPrecision" image-rendering="optimizeQuality" font-family="sans-serif" stroke-linejoin="round" stroke="black" stroke-opacity="1"
    ><line y2="50" fill="none" x1="50" clip-path="url(#clipPath33)" x2="430" y1="50"
      /><polygon points=" 430 50 418 44 418 56" clip-path="url(#clipPath33)" stroke="none"
      /><polygon fill="none" points=" 430 50 418 44 418 56" clip-path="url(#clipPath33)"
    /></g
    ><g stroke-linecap="butt" font-size="11px" transform="translate(463,157)" fill-opacity="1" fill="black" text-rendering="geometricPrecision" image-rendering="optimizeQuality" font-family="sans-serif" stroke-linejoin="round" stroke="black" stroke-opacity="1"
    ><line y2="50" fill="none" x1="50" clip-path="url(#clipPath34)" x2="430" y1="50"
      /><polygon points=" 430 50 418 44 418 56" clip-path="url(#clipPath34)" stroke="none"
      /><polygon fill="none" points=" 430 50 418 44 418 56" clip-path="url(#clipPath34)"
    /></g
    ><g stroke-linecap="butt" font-size="11px" transform="translate(851,166)" fill-opacity="1" fill="black" text-rendering="geometricPrecision" image-rendering="optimizeQuality" font-family="sans-serif" stroke-linejoin="round" stroke="black" stroke-opacity="1"
    ><line y2="50" fill="none" x1="50" clip-path="url(#clipPath36)" x2="435" y1="50"
      /><polygon points=" 435 50 423 44 423 56" clip-path="url(#clipPath36)" stroke="none"
      /><polygon fill="none" points=" 435 50 423 44 423 56" clip-path="url(#clipPath36)"
    /></g
    ><g stroke-linecap="butt" font-size="11px" transform="translate(1244,175)" fill-opacity="1" fill="black" text-rendering="geometricPrecision" image-rendering="optimizeQuality" font-family="sans-serif" stroke-linejoin="round" stroke="black" stroke-opacity="1"
    ><line y2="50" fill="none" x1="50" clip-path="url(#clipPath38)" x2="330" y1="50"
      /><polygon points=" 330 50 318 44 318 56" clip-path="url(#clipPath38)" stroke="none"
      /><polygon fill="none" points=" 330 50 318 44 318 56" clip-path="url(#clipPath38)"
    /></g
    ><g stroke-linecap="butt" font-size="11px" transform="translate(1532,184)" fill-opacity="1" fill="black" text-rendering="geometricPrecision" image-rendering="optimizeQuality" font-family="sans-serif" stroke-linejoin="round" stroke="black" stroke-opacity="1"
    ><line y2="50" fill="none" x1="50" clip-path="url(#clipPath40)" x2="348" y1="50"
      /><polygon points=" 348 50 336 44 336 56" clip-path="url(#clipPath40)" stroke="none"
      /><polygon fill="none" points=" 348 50 336 44 336 56" clip-path="url(#clipPath40)"
    /></g
    ><g stroke-linecap="butt" font-size="11px" transform="translate(851,217)" fill-opacity="1" fill="black" text-rendering="geometricPrecision" image-rendering="optimizeQuality" font-family="sans-serif" stroke-linejoin="round" stroke="black" stroke-opacity="1"
    ><line y2="50" fill="none" x1="50" clip-path="url(#clipPath42)" x2="1029" y1="50"
      /><polygon points=" 1029 50 1017 44 1017 56" clip-path="url(#clipPath42)" stroke="none"
      /><polygon fill="none" points=" 1029 50 1017 44 1017 56" clip-path="url(#clipPath42)"
    /></g
    ><g stroke-linecap="butt" font-size="11px" transform="translate(851,250)" fill-opacity="1" fill="black" text-rendering="geometricPrecision" image-rendering="optimizeQuality" font-family="sans-serif" stroke-linejoin="round" stroke="black" stroke-opacity="1"
    ><line y2="50" fill="none" x1="50" clip-path="url(#clipPath44)" x2="1255" y1="50"
      /><polygon points=" 1255 50 1243 44 1243 56" clip-path="url(#clipPath44)" stroke="none"
      /><polygon fill="none" points=" 1255 50 1243 44 1243 56" clip-path="url(#clipPath44)"
    /></g
    ><g stroke-linecap="butt" font-size="11px" transform="translate(18,283)" fill-opacity="1" fill="black" text-rendering="geometricPrecision" image-rendering="optimizeQuality" font-family="sans-serif" stroke-linejoin="round" stroke="black" stroke-opacity="1"
    ><line y2="50" fill="none" x1="487" clip-path="url(#clipPath45)" x2="50" y1="50"
      /><polygon points=" 50 50 62 56 62 44" clip-path="url(#clipPath45)" stroke="none"
      /><polygon fill="none" points=" 50 50 62 56 62 44" clip-path="url(#clipPath45)"
    /></g
    ><g fill-opacity="1" text-rendering="geometricPrecision" stroke="black" stroke-linecap="butt" transform="translate(18,304)" stroke-miterlimit="0" stroke-opacity="1" fill="black" stroke-dasharray="8,3" font-family="sans-serif" stroke-linejoin="round" font-size="11px" image-rendering="optimizeQuality"
    ><line y2="50" fill="none" x1="50" clip-path="url(#clipPath46)" x2="487" y1="50"
      /><line clip-path="url(#clipPath46)" fill="none" x1="487" x2="475" y1="50" y2="44" stroke-dasharray="none" stroke-miterlimit="10"
      /><line clip-path="url(#clipPath46)" fill="none" x1="487" x2="475" y1="50" y2="56" stroke-dasharray="none" stroke-miterlimit="10"
    /></g
    ><g stroke-linecap="butt" font-size="11px" transform="translate(463,305)" fill-opacity="1" fill="black" text-rendering="geometricPrecision" image-rendering="optimizeQuality" font-family="sans-serif" stroke-linejoin="round" stroke="black" stroke-opacity="1"
    ><line y2="50" fill="none" x1="50" clip-path="url(#clipPath48)" x2="80" y1="50"
      /><line y2="70" fill="none" x1="80" clip-path="url(#clipPath48)" x2="80" y1="50"
      /><line y2="70" fill="none" x1="80" clip-path="url(#clipPath48)" x2="50" y1="70"
      /><polygon points=" 50 70 62 76 62 64" clip-path="url(#clipPath48)" stroke="none"
      /><polygon fill="none" points=" 50 70 62 76 62 64" clip-path="url(#clipPath48)"
    /></g
    ><g stroke-linecap="butt" font-size="11px" transform="translate(18,400)" fill-opacity="1" fill="black" text-rendering="geometricPrecision" image-rendering="optimizeQuality" font-family="sans-serif" stroke-linejoin="round" stroke="black" stroke-opacity="1"
    ><line y2="50" fill="none" x1="487" clip-path="url(#clipPath49)" x2="50" y1="50"
      /><polygon points=" 50 50 62 56 62 44" clip-path="url(#clipPath49)" stroke="none"
      /><polygon fill="none" points=" 50 50 62 56 62 44" clip-path="url(#clipPath49)"
    /></g
    ><g fill-opacity="1" text-rendering="geometricPrecision" stroke="black" stroke-linecap="butt" transform="translate(18,430)" stroke-miterlimit="0" stroke-opacity="1" fill="black" stroke-dasharray="8,3" font-family="sans-serif" stroke-linejoin="round" font-size="11px" image-rendering="optimizeQuality"
    ><line y2="50" fill="none" x1="50" clip-path="url(#clipPath50)" x2="487" y1="50"
      /><line clip-path="url(#clipPath50)" fill="none" x1="487" x2="475" y1="50" y2="44" stroke-dasharray="none" stroke-miterlimit="10"
      /><line clip-path="url(#clipPath50)" fill="none" x1="487" x2="475" y1="50" y2="56" stroke-dasharray="none" stroke-miterlimit="10"
    /></g
    ><g stroke-linecap="butt" font-size="11px" transform="translate(463,460)" fill-opacity="1" fill="black" text-rendering="geometricPrecision" image-rendering="optimizeQuality" font-family="sans-serif" stroke-linejoin="round" stroke="black" stroke-opacity="1"
    ><line y2="50" fill="none" x1="50" clip-path="url(#clipPath51)" x2="430" y1="50"
      /><polygon points=" 430 50 418 44 418 56" clip-path="url(#clipPath51)" stroke="none"
      /><polygon fill="none" points=" 430 50 418 44 418 56" clip-path="url(#clipPath51)"
    /></g
    ><g stroke-linecap="butt" font-size="11px" transform="translate(851,490)" fill-opacity="1" fill="black" text-rendering="geometricPrecision" image-rendering="optimizeQuality" font-family="sans-serif" stroke-linejoin="round" stroke="black" stroke-opacity="1"
    ><line y2="50" fill="none" x1="50" clip-path="url(#clipPath52)" x2="435" y1="50"
      /><polygon points=" 435 50 423 44 423 56" clip-path="url(#clipPath52)" stroke="none"
      /><polygon fill="none" points=" 435 50 423 44 423 56" clip-path="url(#clipPath52)"
    /></g
    ><g stroke-linecap="butt" font-size="11px" transform="translate(1244,520)" fill-opacity="1" fill="black" text-rendering="geometricPrecision" image-rendering="optimizeQuality" font-family="sans-serif" stroke-linejoin="round" stroke="black" stroke-opacity="1"
    ><line y2="50" fill="none" x1="50" clip-path="url(#clipPath53)" x2="330" y1="50"
      /><polygon points=" 330 50 318 44 318 56" clip-path="url(#clipPath53)" stroke="none"
      /><polygon fill="none" points=" 330 50 318 44 318 56" clip-path="url(#clipPath53)"
    /></g
    ><g stroke-linecap="butt" font-size="11px" transform="translate(1532,550)" fill-opacity="1" fill="black" text-rendering="geometricPrecision" image-rendering="optimizeQuality" font-family="sans-serif" stroke-linejoin="round" stroke="black" stroke-opacity="1"
    ><line y2="50" fill="none" x1="50" clip-path="url(#clipPath55)" x2="749" y1="50"
      /><polygon points=" 749 50 737 44 737 56" clip-path="url(#clipPath55)" stroke="none"
      /><polygon fill="none" points=" 749 50 737 44 737 56" clip-path="url(#clipPath55)"
    /></g
    ><g stroke-linecap="butt" font-size="11px" transform="translate(851,610)" fill-opacity="1" fill="black" text-rendering="geometricPrecision" image-rendering="optimizeQuality" font-family="sans-serif" stroke-linejoin="round" stroke="black" stroke-opacity="1"
    ><line y2="50" fill="none" x1="50" clip-path="url(#clipPath57)" x2="1430" y1="50"
      /><polygon points=" 1430 50 1418 44 1418 56" clip-path="url(#clipPath57)" stroke="none"
      /><polygon fill="none" points=" 1430 50 1418 44 1418 56" clip-path="url(#clipPath57)"
    /></g
    ><g stroke-linecap="butt" font-size="11px" transform="translate(18,630)" fill-opacity="1" fill="black" text-rendering="geometricPrecision" image-rendering="optimizeQuality" font-family="sans-serif" stroke-linejoin="round" stroke="black" stroke-opacity="1"
    ><line y2="50" fill="none" x1="487" clip-path="url(#clipPath58)" x2="50" y1="50"
      /><polygon points=" 50 50 62 56 62 44" clip-path="url(#clipPath58)" stroke="none"
      /><polygon fill="none" points=" 50 50 62 56 62 44" clip-path="url(#clipPath58)"
    /></g
    ><g font-size="11px" transform="translate(242,661)" fill-opacity="1" fill="white" text-rendering="geometricPrecision" image-rendering="optimizeQuality" font-family="sans-serif" stroke="white" stroke-opacity="1"
    ><rect x="0" width="86" height="14" y="0" clip-path="url(#clipPath59)" stroke="none"
      /><text fill="black" x="9" xml:space="preserve" y="11" clip-path="url(#clipPath59)" stroke="none"
      >2.9: success</text
    ></g
    ><g font-size="11px" transform="translate(955,630)" fill-opacity="1" fill="white" text-rendering="geometricPrecision" image-rendering="optimizeQuality" font-family="sans-serif" stroke="white" stroke-opacity="1"
    ><rect x="0" width="1058" height="20" y="0" clip-path="url(#clipPath60)" stroke="none"
      /><text fill="black" x="52" xml:space="preserve" y="14" clip-path="url(#clipPath60)" stroke="none"
      >2.8.2: addProductionOrder(productionOrderID.valueOf(productionOrderID),dateOfIssue, expectedExecutionDate, ProductID.valueOf(productId), orderId,Quantity.valueOf(quantity))</text
    ></g
    ><g font-size="11px" transform="translate(1893,581)" fill-opacity="1" fill="white" text-rendering="geometricPrecision" image-rendering="optimizeQuality" font-family="sans-serif" stroke="white" stroke-opacity="1"
    ><rect x="0" width="76" height="14" y="0" clip-path="url(#clipPath61)" stroke="none"
      /><text fill="black" x="11" xml:space="preserve" y="11" clip-path="url(#clipPath61)" stroke="none"
      >2.8.1.1.1:</text
    ></g
    ><g font-size="11px" transform="translate(1384,549)" fill-opacity="1" fill="white" text-rendering="geometricPrecision" image-rendering="optimizeQuality" font-family="sans-serif" stroke="white" stroke-opacity="1"
    ><rect x="0" width="98" height="14" y="0" clip-path="url(#clipPath62)" stroke="none"
      /><text fill="black" x="10" xml:space="preserve" y="11" clip-path="url(#clipPath62)" stroke="none"
      >2.8.1.1: create</text
    ></g
    ><g font-size="11px" transform="translate(1029,522)" fill-opacity="1" fill="white" text-rendering="geometricPrecision" image-rendering="optimizeQuality" font-family="sans-serif" stroke="white" stroke-opacity="1"
    ><rect x="0" width="119" height="14" y="0" clip-path="url(#clipPath63)" stroke="none"
      /><text fill="black" x="9" xml:space="preserve" y="11" clip-path="url(#clipPath63)" stroke="none"
      >2.8.1: repositories</text
    ></g
    ><g font-size="11px" transform="translate(536,449)" fill-opacity="1" fill="white" text-rendering="geometricPrecision" image-rendering="optimizeQuality" font-family="sans-serif" stroke="white" stroke-opacity="1"
    ><rect x="0" width="351" height="53" y="0" clip-path="url(#clipPath64)" stroke="none"
      /><text fill="black" x="165" xml:space="preserve" y="16" clip-path="url(#clipPath64)" stroke="none"
      >2.8:</text
      ><text fill="black" x="6" xml:space="preserve" y="30" clip-path="url(#clipPath64)" stroke="none"
      >addProductionOrder(productionOrderID,dateOfIssue,expectedP</text
      ><text fill="black" x="50" xml:space="preserve" y="44" clip-path="url(#clipPath64)" stroke="none"
      >roductionOrder,productId,orderIdList,quantity)</text
    ></g
    ><g font-size="11px" transform="translate(218,461)" fill-opacity="1" fill="white" text-rendering="geometricPrecision" image-rendering="optimizeQuality" font-family="sans-serif" stroke="white" stroke-opacity="1"
    ><rect x="0" width="135" height="14" y="0" clip-path="url(#clipPath65)" stroke="none"
      /><text fill="black" x="9" xml:space="preserve" y="11" clip-path="url(#clipPath65)" stroke="none"
      >2.7: submits quantity</text
    ></g
    ><g font-size="11px" transform="translate(190,431)" fill-opacity="1" fill="white" text-rendering="geometricPrecision" image-rendering="optimizeQuality" font-family="sans-serif" stroke="white" stroke-opacity="1"
    ><rect x="0" width="190" height="14" y="0" clip-path="url(#clipPath66)" stroke="none"
      /><text fill="black" x="9" xml:space="preserve" y="11" clip-path="url(#clipPath66)" stroke="none"
      >2.6: ask for quantity to Produce</text
    ></g
    ><g font-size="11px" transform="translate(560,361)" fill-opacity="1" fill="white" text-rendering="geometricPrecision" image-rendering="optimizeQuality" font-family="sans-serif" stroke="white" stroke-opacity="1"
    ><rect x="0" width="150" height="14" y="0" clip-path="url(#clipPath67)" stroke="none"
      /><text fill="black" x="9" xml:space="preserve" y="11" clip-path="url(#clipPath67)" stroke="none"
      >2.5: orderIdList(orderID)</text
    ></g
    ><g font-size="11px" transform="translate(218,335)" fill-opacity="1" fill="white" text-rendering="geometricPrecision" image-rendering="optimizeQuality" font-family="sans-serif" stroke="white" stroke-opacity="1"
    ><rect x="0" width="136" height="14" y="0" clip-path="url(#clipPath68)" stroke="none"
      /><text fill="black" x="10" xml:space="preserve" y="11" clip-path="url(#clipPath68)" stroke="none"
      >2.4: submits Order ID</text
    ></g
    ><g font-size="11px" transform="translate(220,314)" fill-opacity="1" fill="white" text-rendering="geometricPrecision" image-rendering="optimizeQuality" font-family="sans-serif" stroke="white" stroke-opacity="1"
    ><rect x="0" width="131" height="14" y="0" clip-path="url(#clipPath69)" stroke="none"
      /><text fill="black" x="9" xml:space="preserve" y="11" clip-path="url(#clipPath69)" stroke="none"
      >2.3: ask for Order ID</text
    ></g
    ><g font-size="11px" transform="translate(1400,281)" fill-opacity="1" fill="white" text-rendering="geometricPrecision" image-rendering="optimizeQuality" font-family="sans-serif" stroke="white" stroke-opacity="1"
    ><rect x="0" width="206" height="14" y="0" clip-path="url(#clipPath70)" stroke="none"
      /><text fill="black" x="9" xml:space="preserve" y="11" clip-path="url(#clipPath70)" stroke="none"
      >2.2.3: product.hasProductionSheet</text
    ></g
    ><g font-size="11px" transform="translate(1331,248)" fill-opacity="1" fill="white" text-rendering="geometricPrecision" image-rendering="optimizeQuality" font-family="sans-serif" stroke="white" stroke-opacity="1"
    ><rect x="0" width="116" height="14" y="0" clip-path="url(#clipPath24)" stroke="none"
      /><text fill="black" x="9" xml:space="preserve" y="11" clip-path="url(#clipPath24)" stroke="none"
      >2.2.2: findById(id)</text
    ></g
    ><g font-size="11px" transform="translate(1676,214)" fill-opacity="1" fill="white" text-rendering="geometricPrecision" image-rendering="optimizeQuality" font-family="sans-serif" stroke="white" stroke-opacity="1"
    ><rect x="0" width="109" height="14" y="0" clip-path="url(#clipPath71)" stroke="none"
      /><text fill="black" x="9" xml:space="preserve" y="11" clip-path="url(#clipPath71)" stroke="none"
      >2.2.1.1.1: create</text
    ></g
    ><g font-size="11px" transform="translate(1384,206)" fill-opacity="1" fill="white" text-rendering="geometricPrecision" image-rendering="optimizeQuality" font-family="sans-serif" stroke="white" stroke-opacity="1"
    ><rect x="0" width="98" height="14" y="0" clip-path="url(#clipPath62)" stroke="none"
      /><text fill="black" x="10" xml:space="preserve" y="11" clip-path="url(#clipPath62)" stroke="none"
      >2.2.1.1: create</text
    ></g
    ><g font-size="11px" transform="translate(1029,194)" fill-opacity="1" fill="white" text-rendering="geometricPrecision" image-rendering="optimizeQuality" font-family="sans-serif" stroke="white" stroke-opacity="1"
    ><rect x="0" width="126" height="14" y="0" clip-path="url(#clipPath72)" stroke="none"
      /><text fill="black" x="9" xml:space="preserve" y="11" clip-path="url(#clipPath72)" stroke="none"
      >2.2.1: repositories()</text
    ></g
    ><g font-size="11px" transform="translate(630,188)" fill-opacity="1" fill="white" text-rendering="geometricPrecision" image-rendering="optimizeQuality" font-family="sans-serif" stroke="white" stroke-opacity="1"
    ><rect x="0" width="146" height="14" y="0" clip-path="url(#clipPath73)" stroke="none"
      /><text fill="black" x="10" xml:space="preserve" y="11" clip-path="url(#clipPath73)" stroke="none"
      >2.2: findProductById(id)</text
    ></g
    ><g font-size="11px" transform="translate(665,152)" fill-opacity="1" fill="white" text-rendering="geometricPrecision" image-rendering="optimizeQuality" font-family="sans-serif" stroke="white" stroke-opacity="1"
    ><rect x="0" width="77" height="14" y="0" clip-path="url(#clipPath74)" stroke="none"
      /><text fill="black" x="10" xml:space="preserve" y="11" clip-path="url(#clipPath74)" stroke="none"
      >2.1: create</text
    ></g
    ><g font-size="11px" transform="translate(214,130)" fill-opacity="1" fill="white" text-rendering="geometricPrecision" image-rendering="optimizeQuality" font-family="sans-serif" stroke="white" stroke-opacity="1"
    ><rect x="0" width="143" height="14" y="0" clip-path="url(#clipPath75)" stroke="none"
      /><text fill="black" x="9" xml:space="preserve" y="11" clip-path="url(#clipPath75)" stroke="none"
      >2: submits information</text
    ></g
    ><g font-size="11px" transform="translate(102,102)" fill-opacity="1" fill="white" text-rendering="geometricPrecision" image-rendering="optimizeQuality" font-family="sans-serif" stroke="white" stroke-opacity="1"
    ><rect x="0" width="370" height="14" y="0" clip-path="url(#clipPath76)" stroke="none"
      /><text fill="black" x="10" xml:space="preserve" y="11" clip-path="url(#clipPath76)" stroke="none"
      >1.1: ask for ID, date of issue,expected execution date, product ID</text
    ></g
    ><g font-size="11px" transform="translate(210,72)" fill-opacity="1" fill="white" text-rendering="geometricPrecision" image-rendering="optimizeQuality" font-family="sans-serif" stroke="white" stroke-opacity="1"
    ><rect x="0" width="149" height="14" y="0" clip-path="url(#clipPath77)" stroke="none"
      /><text fill="black" x="10" xml:space="preserve" y="11" clip-path="url(#clipPath77)" stroke="none"
      >1: add Production Order</text
    ></g
    ><g font-size="8px" fill-opacity="1" fill="rgb(120,120,120)" text-rendering="geometricPrecision" image-rendering="optimizeQuality" stroke="rgb(120,120,120)" stroke-opacity="1"
    ><text x="0" xml:space="preserve" y="10" stroke="none"
      >Visual Paradigm Standard(joaomachado(Instituto Superior de Engenharia do Porto))</text
    ></g
  ></g
></svg
>
